{
	"class" : {
		"ancilliaryClasses:" : "eem 8/21/2013 12:28",
		"callingConvention" : "eem 3/21/2013 15:45",
		"declareCVarsIn:" : "eem 8/14/2013 12:32",
		"initializeBytecodeTableForNewspeakV3PlusClosures" : "eem 8/17/2013 18:52",
		"initializeBytecodeTableForNewspeakV3PlusClosuresNewspeakV4Hybrid" : "eem 11/15/2012 19:15",
		"initializeBytecodeTableForNewspeakV4" : "eem 8/17/2013 18:52",
		"initializeBytecodeTableForSqueakV3PlusClosures" : "eem 8/17/2013 18:53",
		"initializeMiscConstantsWith:" : "eem 6/24/2011 18:03",
		"initializeSimStackConstants" : "eem 12/7/2010 17:32",
		"initializeWithOptions:" : "eem 4/6/2012 14:25",
		"isPushNilFunction" : "eem 11/15/2012 16:28",
		"mustBeGlobal:" : "eem 12/11/2010 18:15",
		"newInitializeBytecodeTableForNewspeakV3PlusClosures" : "eem 8/17/2013 18:54",
		"newInitializeBytecodeTableForNewspeakV3PlusClosuresNewspeakV4Hybrid" : "eem 8/13/2013 16:22",
		"newInitializeBytecodeTableForNewspeakV4" : "eem 8/17/2013 18:54",
		"newInitializeBytecodeTableForSqueakV3PlusClosures" : "eem 8/17/2013 18:54",
		"prepareToBeAddedToCodeGenerator:" : "eem 12/10/2010 23:55",
		"pushNilSizeFunction" : "eem 11/15/2012 16:28",
		"requiredMethodNames:" : "eem 8/21/2013 13:11",
		"stackToRegisterMapping" : "eem 11/26/2010 09:02" },
	"instance" : {
		"addBlockStartAt:numArgs:numCopied:span:" : "eem 1/28/2011 11:16",
		"annotateBytecodeIfAnnotated:" : "eem 11/30/2012 15:58",
		"anyReferencesToRegister:inTopNItems:" : "eem 1/12/2013 10:48",
		"availableRegister" : "eem 12/4/2010 21:41",
		"availableRegisterOrNil" : "eem 8/8/2012 13:45",
		"bytecodeFixupClass" : "eem 11/22/2010 11:09",
		"cPICMissTrampolineFor:" : "eem 12/4/2010 08:41",
		"ceEnter0ArgsPIC" : "eem 12/4/2010 19:42",
		"ceEnter1ArgsPIC" : "eem 12/4/2010 19:42",
		"ceEnter2ArgsPIC" : "eem 12/4/2010 19:42",
		"ceEnterCogCodePopReceiverArg0Regs" : "eem 12/3/2010 08:56",
		"ceEnterCogCodePopReceiverArg1Arg0Regs" : "eem 12/3/2010 08:56",
		"ceShortCutTraceStore:" : "eem 12/11/2010 14:21",
		"compileAbstractInstructionsFrom:through:" : "eem 11/2/2012 10:57",
		"compileBlockBodies" : "eem 8/16/2013 14:57",
		"compileBlockFrameBuild:" : "eem 12/11/2010 18:08",
		"compileBlockFramelessEntry:" : "eem 6/30/2011 17:26",
		"compileCogMethod:" : "eem 11/30/2010 21:19",
		"compileEntireMethod" : "eem 1/18/2011 10:05",
		"compileFrameBuild" : "eem 12/5/2010 13:55",
		"compileOpenPIC:numArgs:" : "eem 3/1/2011 16:30",
		"debugStackPointerFor:" : "eem 12/11/2010 11:03",
		"doubleExtendedDoAnythingBytecode" : "eem 7/12/2013 15:31",
		"duplicateTopBytecode" : "eem 12/11/2010 14:04",
		"ensureFixupAt:" : "eem 12/11/2010 15:13",
		"ensureNonMergeFixupAt:" : "eem 12/11/2010 15:12",
		"ensureReceiverResultRegContainsSelf" : "eem 12/11/2010 12:52",
		"enterCogCodePopReceiverArg0Regs" : "eem 12/11/2010 16:21",
		"enterCogCodePopReceiverArg1Arg0Regs" : "eem 12/11/2010 16:22",
		"fixupAt:" : "eem 12/11/2010 18:02",
		"genDoubleArithmetic:preOpCheck:" : "eem 12/24/2010 11:17",
		"genDoubleComparison:invert:" : "eem 11/25/2010 15:21",
		"genEnterPICEnilopmartNumArgs:" : "eem 12/4/2010 19:46",
		"genExtPushClosureBytecode" : "eem 11/2/2012 10:57",
		"genExternalizePointersForPrimitiveCall" : "eem 11/21/2010 16:39",
		"genFramelessStorePop:ReceiverVariable:" : "eem 8/15/2013 11:21",
		"genGetImplicitReceiverFor:forPush:" : "eem 3/21/2013 16:39",
		"genJumpBackTo:" : "eem 11/25/2010 13:38",
		"genJumpIf:to:" : "eem 1/26/2011 21:26",
		"genJumpTo:" : "eem 11/25/2010 13:38",
		"genMarshalledSend:numArgs:" : "eem 11/23/2010 12:21",
		"genMarshalledSendDynamicSuper:numArgs:" : "eem 7/14/2011 17:39",
		"genMarshalledSendSuper:numArgs:" : "eem 11/23/2010 12:22",
		"genMethodAbortTrampolineFor:" : "eem 12/12/2012 11:49",
		"genPICAbortTrampolineFor:" : "eem 12/4/2010 17:53",
		"genPICMissTrampolineFor:" : "eem 12/12/2012 11:49",
		"genPopStackBytecode" : "eem 11/30/2012 14:17",
		"genPrimitiveAdd" : "eem 11/25/2010 15:24",
		"genPrimitiveAsFloat" : "eem 12/5/2010 21:37",
		"genPrimitiveAt" : "eem 8/19/2011 13:30",
		"genPrimitiveBitAnd" : "eem 11/25/2010 15:05",
		"genPrimitiveBitOr" : "eem 11/25/2010 15:03",
		"genPrimitiveBitShift" : "eem 11/25/2010 15:11",
		"genPrimitiveBitXor" : "eem 11/25/2010 15:06",
		"genPrimitiveClass" : "eem 8/17/2013 14:14",
		"genPrimitiveClosureValue" : "eem 12/1/2010 10:12",
		"genPrimitiveDiv" : "eem 12/1/2010 12:44",
		"genPrimitiveDivide" : "eem 12/7/2010 17:44",
		"genPrimitiveEquivalent" : "eem 11/25/2010 15:23",
		"genPrimitiveFloatSquareRoot" : "eem 12/11/2010 09:19",
		"genPrimitiveIdentityHash" : "eem 12/1/2010 12:27",
		"genPrimitiveMod" : "eem 12/1/2010 12:48",
		"genPrimitiveMultiply" : "eem 12/1/2010 12:46",
		"genPrimitiveNotEquivalent" : "eem 10/12/2011 11:36",
		"genPrimitiveQuo" : "eem 12/5/2010 10:37",
		"genPrimitiveSize" : "eem 8/19/2011 13:22",
		"genPrimitiveStringAt" : "eem 8/19/2011 13:29",
		"genPrimitiveSubtract" : "eem 11/25/2010 15:10",
		"genPushActiveContextBytecode" : "eem 7/14/2011 15:41",
		"genPushClosureCopyCopiedValuesBytecode" : "eem 11/2/2012 10:57",
		"genPushExplicitOuterSendReceiver:" : "eem 11/15/2012 13:24",
		"genPushImplicitReceiverBytecode" : "eem 3/21/2013 16:38",
		"genPushLiteral:" : "eem 11/21/2010 11:29",
		"genPushLiteralVariable:" : "eem 8/15/2013 17:27",
		"genPushMaybeContextReceiverVariable:" : "eem 12/19/2010 19:08",
		"genPushNewArrayBytecode" : "eem 12/11/2010 20:07",
		"genPushReceiverBytecode" : "eem 12/11/2010 14:03",
		"genPushReceiverVariable:" : "eem 12/1/2010 18:11",
		"genPushRegisterArgs" : "eem 12/3/2010 17:23",
		"genPushRegisterArgsForAbortMissNumArgs:" : "eem 12/4/2010 17:52",
		"genPushRegisterArgsForNumArgs:" : "eem 12/3/2010 17:22",
		"genPushRemoteTempLongBytecode" : "eem 11/22/2010 17:58",
		"genPushTemporaryVariable:" : "eem 12/11/2010 14:03",
		"genReturnTopFromBlock" : "eem 12/1/2010 11:21",
		"genReturnTopFromMethod" : "eem 12/1/2010 11:20",
		"genSend:numArgs:" : "eem 11/20/2010 19:52",
		"genSendAbsentDynamicSuper:numArgs:" : "eem 1/10/2013 14:46",
		"genSendAbsentImplicit:numArgs:" : "eem 3/21/2013 16:38",
		"genSendDynamicSuper:numArgs:" : "eem 1/10/2013 14:33",
		"genSendSuper:numArgs:" : "eem 11/21/2010 11:59",
		"genSendTrampolineFor:numArgs:called:arg:arg:arg:" : "eem 7/14/2011 15:50",
		"genSendTrampolineFor:numArgs:called:arg:arg:arg:arg:" : "eem 12/3/2010 17:24",
		"genSmallIntegerComparison:" : "eem 11/25/2010 15:10",
		"genSpecialSelectorArithmetic" : "eem 11/30/2012 14:14",
		"genSpecialSelectorClass" : "eem 8/17/2013 11:35",
		"genSpecialSelectorComparison" : "eem 11/30/2012 14:13",
		"genSpecialSelectorEqualsEquals" : "eem 11/2/2012 10:57",
		"genStorePop:LiteralVariable:" : "eem 3/1/2013 16:22",
		"genStorePop:MaybeContextReceiverVariable:" : "eem 1/4/2011 09:46",
		"genStorePop:ReceiverVariable:" : "eem 8/13/2013 15:17",
		"genStorePop:RemoteTemp:At:" : "eem 3/6/2011 17:37",
		"genStorePop:TemporaryVariable:" : "eem 12/2/2010 08:02",
		"genUpArrowReturn" : "eem 12/5/2010 10:40",
		"generateEnilopmarts" : "eem 12/12/2012 11:49",
		"generateMissAbortTrampolines" : "eem 12/4/2010 21:21",
		"generateSendTrampolines" : "eem 12/12/2012 11:49",
		"generateTracingTrampolines" : "eem 12/12/2012 11:49",
		"initSimStackForFramefulMethod:" : "eem 1/22/2011 16:58",
		"initSimStackForFramelessBlock:" : "eem 1/22/2011 17:02",
		"initSimStackForFramelessMethod:" : "eem 7/12/2011 14:35",
		"initializeBackend" : "eem 12/11/2010 20:39",
		"initializeFixupAt:" : "eem 12/3/2010 11:22",
		"isPushNil:pc:nExts:method:" : "eem 11/15/2012 18:50",
		"isValidFramelessRegister:" : "eem 11/17/2011 14:22",
		"liveRegisters" : "eem 1/3/2011 18:13",
		"marshallImplicitReceiverSendArguments:" : "eem 1/12/2013 10:02",
		"marshallSendArguments:" : "eem 1/12/2013 10:53",
		"merge:afterContinuation:" : "eem 11/2/2012 10:46",
		"methodAbortTrampolineFor:" : "eem 12/3/2010 16:53",
		"needsFrameIfFollowsSend:" : "eem 8/17/2013 18:48",
		"needsFrameIfMod16GENumArgs:" : "eem 8/17/2013 18:47",
		"needsFrameIfStackGreaterThanOne:" : "eem 8/17/2013 18:50",
		"numRegArgs" : "eem 12/11/2010 18:00",
		"numberOfSpillsInTopNItems:" : "eem 1/7/2013 11:53",
		"picAbortTrampolineFor:" : "eem 12/4/2010 08:42",
		"prevInstIsPCAnnotated" : "eem 3/18/2013 17:03",
		"printSimStack" : "eem 12/11/2010 14:58",
		"pushNilSize:" : "eem 11/15/2012 19:11",
		"registerMaskFor:" : "nice 12/27/2012 03:18",
		"registerMaskFor:and:" : "nice 12/27/2012 03:19",
		"registerMaskFor:and:and:" : "nice 12/27/2012 20:10",
		"reinitializeFixupsFrom:through:" : "eem 11/14/2012 15:28",
		"returnRegForStoreCheck" : "eem 12/13/2010 18:55",
		"scanBlock:" : "eem 8/17/2013 18:45",
		"scanMethod" : "eem 8/17/2013 18:46",
		"setInterpreter:" : "eem 11/15/2012 16:28",
		"simStackAt:" : "eem 12/11/2010 18:01",
		"ssAllocateCallReg:" : "eem 1/7/2011 17:24",
		"ssAllocateCallReg:and:" : "eem 12/25/2010 10:26",
		"ssAllocateCallReg:and:and:" : "eem 7/14/2011 15:11",
		"ssAllocateCallReg:and:and:and:" : "eem 7/14/2011 15:11",
		"ssAllocatePreferredReg:" : "eem 12/11/2010 14:58",
		"ssAllocateRequiredReg:" : "eem 12/25/2010 10:26",
		"ssAllocateRequiredReg:and:" : "eem 12/25/2010 10:26",
		"ssAllocateRequiredReg:upThrough:" : "eem 12/25/2010 10:27",
		"ssAllocateRequiredRegMask:upThrough:" : "eem 1/7/2013 11:47",
		"ssFlushTo:" : "eem 12/11/2010 18:00",
		"ssFlushUpThroughReceiverVariable:" : "eem 11/18/2011 08:40",
		"ssFlushUpThroughTemporaryVariable:" : "eem 11/18/2011 08:46",
		"ssPop:" : "eem 12/11/2010 07:53",
		"ssPush:" : "eem 11/20/2010 14:41",
		"ssPushAnnotatedConstant:" : "eem 11/2/2012 10:46",
		"ssPushBase:offset:" : "eem 11/2/2012 10:46",
		"ssPushConstant:" : "eem 11/2/2012 10:46",
		"ssPushDesc:" : "eem 11/2/2012 10:46",
		"ssPushRegister:" : "eem 11/2/2012 10:46",
		"ssStorePop:toPreferredReg:" : "eem 1/22/2011 17:13",
		"ssTop" : "eem 12/11/2010 15:00",
		"ssTopDescriptor" : "eem 12/11/2010 08:25",
		"ssValue:" : "eem 12/11/2010 15:00",
		"traceDescriptor:" : "eem 11/2/2012 10:46",
		"traceFixup:" : "eem 11/2/2012 10:46",
		"traceMerge:" : "eem 12/1/2010 11:59",
		"traceSimStack" : "eem 11/25/2010 10:07",
		"traceSpill:" : "eem 11/2/2012 10:46",
		"v3:Is:Push:Nil:" : "eem 12/12/2012 11:49",
		"v3PushNilSize:" : "eem 11/15/2012 19:18",
		"v3or4:Is:Push:Nil:" : "eem 11/15/2012 18:46",
		"v3or4PushNilSize:" : "eem 11/15/2012 19:18",
		"v4:Is:Push:Nil:" : "eem 12/12/2012 11:49",
		"v4PushNilSize:" : "eem 11/15/2012 19:18" } }
