{
	"class" : {
		"additionalHeadersDo:" : "eem 8/21/2013 16:27",
		"additionalSelectorTables" : "eem 4/16/2009 12:50",
		"ancilliaryClasses:" : "eem 8/21/2013 16:03",
		"annotationConstantNames" : "eem 2/27/2009 10:34",
		"apiExportHeaderName" : "eem 2/10/2009 16:34",
		"asOptionsDictionary:" : "eem 10/31/2012 16:10",
		"assumptions" : "eem 5/6/2009 11:15",
		"bytecodeTable" : "eem 11/20/2010 09:25",
		"chooseCogitClass" : "eem 1/20/2011 21:18",
		"cog:selector:" : "eem 10/31/2012 16:11",
		"cog:selector:options:" : "eem 11/4/2012 08:22",
		"cogToBytecodeMethodMapping" : "eem 7/5/2011 16:59",
		"declareCVarsIn:" : "EstebanLorenzano 2/13/2013 15:44",
		"doInlining" : "eem 6/23/2011 12:06",
		"exportAPISelectors:" : "eem 8/21/2013 13:06",
		"genAndDis:" : "eem 10/31/2012 16:13",
		"genAndDis:options:" : "eem 10/31/2012 16:12",
		"generatorTable" : "eem 11/20/2010 09:17",
		"generatorTableFrom:" : "eem 11/18/2012 10:44",
		"implicitReturnTypeFor:" : "eem 2/15/2009 09:12",
		"initializeAnnotationConstants" : "eem 6/25/2011 00:29",
		"initializeBytecodeTableForNewspeakV3PlusClosuresNewspeakV4Hybrid" : "eem 3/18/2013 16:51",
		"initializeBytecodeTableWith:" : "eem 8/12/2013 19:51",
		"initializeCogMethodConstants" : "eem 1/30/2009 09:08",
		"initializeErrorCodes" : "eem 3/21/2013 15:57",
		"initializeMiscConstantsWith:" : "eem 7/17/2013 13:56",
		"initializePrimitiveTable" : "eem 4/6/2012 14:27",
		"initializeWithOptions:" : "eem 8/12/2013 19:49",
		"isCogitClass" : "eem 5/29/2009 09:56",
		"isNonArgumentImplicitReceiverVariableName:" : "EstebanLorenzano 4/16/2013 16:31",
		"mustBeGlobal:" : "eem 11/15/2012 10:40",
		"namesOfVariablesToLocalize" : "eem 2/9/2009 18:55",
		"newInitializeBytecodeTableForNewspeakV3PlusClosuresNewspeakV4Hybrid" : "eem 8/13/2013 16:21",
		"notesAndQueries" : "eem 10/16/2010 18:42",
		"preGenerationHook:" : "eem 8/21/2013 13:01",
		"primitiveTable" : "eem 11/20/2010 09:18",
		"requiredMethodNames:" : "eem 8/21/2013 13:01",
		"shouldGenerateTypedefFor:" : "eem 8/21/2013 11:23",
		"sourceFileName" : "eem 2/9/2009 14:09",
		"specialValueForConstant:default:" : "eem 7/6/2010 15:32",
		"table:from:" : "eem 4/17/2009 15:07",
		"tableFunctions" : "eem 11/15/2012 16:01",
		"tableInitializerFor:in:" : "eem 4/16/2009 12:38",
		"testPCMappingFor:" : "eem 3/18/2013 11:12",
		"testPCMappingFor:options:" : "eem 3/18/2013 11:12",
		"testPCMappingSelect:" : "eem 3/18/2013 11:13",
		"testPCMappingSelect:options:" : "eem 3/18/2013 11:13",
		"trampolines" : "eem 6/23/2009 18:04",
		"typeForSelf" : "eem 2/9/2009 20:42",
		"wantsLabels" : "eem 2/9/2009 17:25" },
	"instance" : {
		"AddCq:R:" : "eem 2/10/2009 17:58",
		"AddCw:R:" : "eem 2/10/2009 17:58",
		"AddR:R:" : "eem 2/10/2009 17:58",
		"AddRd:Rd:" : "eem 4/16/2009 09:03",
		"AlignmentNops:" : "eem 2/10/2009 17:58",
		"AndCq:R:" : "eem 2/10/2009 17:58",
		"AndCw:R:" : "eem 2/10/2009 17:58",
		"AndR:R:" : "eem 2/10/2009 17:58",
		"ArithmeticShiftRightCq:R:" : "eem 2/10/2009 17:58",
		"ArithmeticShiftRightR:R:" : "eem 2/10/2009 17:58",
		"Call:" : "eem 2/11/2009 20:26",
		"CallNewspeakSend:" : "eem 6/23/2011 09:42",
		"CallRT:" : "eem 2/26/2009 17:48",
		"CallSend:" : "eem 2/26/2009 17:49",
		"CmpCq:R:" : "eem 2/10/2009 17:58",
		"CmpCw:R:" : "eem 2/10/2009 17:58",
		"CmpR:R:" : "eem 2/10/2009 17:58",
		"CmpRd:Rd:" : "eem 4/16/2009 09:03",
		"ConvertR:Rd:" : "eem 4/16/2009 15:25",
		"DivR:R:Quo:Rem:" : "eem 9/10/2009 16:43",
		"DivRd:Rd:" : "eem 4/16/2009 09:03",
		"Fill16:" : "eem 2/17/2009 11:45",
		"Fill32:" : "eem 1/8/2011 20:46",
		"FillFrom:Word:" : "eem 2/17/2009 11:30",
		"Jump:" : "eem 2/11/2009 20:23",
		"JumpAbove:" : "eem 2/14/2009 19:45",
		"JumpAboveOrEqual:" : "eem 2/14/2009 19:45",
		"JumpBelow:" : "eem 2/14/2009 19:45",
		"JumpBelowOrEqual:" : "eem 2/14/2009 19:45",
		"JumpCarry:" : "eem 2/14/2009 19:45",
		"JumpFPEqual:" : "eem 4/17/2009 15:45",
		"JumpFPGreater:" : "eem 4/17/2009 15:45",
		"JumpFPGreaterOrEqual:" : "eem 4/17/2009 15:45",
		"JumpFPLess:" : "eem 4/17/2009 15:46",
		"JumpFPLessOrEqual:" : "eem 4/17/2009 15:45",
		"JumpFPNotEqual:" : "eem 4/17/2009 15:46",
		"JumpGreater:" : "eem 2/14/2009 19:45",
		"JumpGreaterOrEqual:" : "eem 2/14/2009 19:45",
		"JumpLess:" : "eem 2/14/2009 19:45",
		"JumpLessOrEqual:" : "eem 2/14/2009 19:45",
		"JumpLong:" : "eem 8/9/2011 16:51",
		"JumpLongNonZero:" : "eem 8/22/2011 16:42",
		"JumpLongZero:" : "eem 8/22/2011 16:43",
		"JumpNegative:" : "eem 2/14/2009 19:45",
		"JumpNoCarry:" : "eem 2/14/2009 19:45",
		"JumpNoOverflow:" : "eem 2/14/2009 19:45",
		"JumpNonNegative:" : "eem 2/14/2009 19:45",
		"JumpNonZero:" : "eem 2/14/2009 19:45",
		"JumpOverflow:" : "eem 2/14/2009 19:45",
		"JumpR:" : "eem 2/14/2009 17:56",
		"JumpRT:" : "eem 8/9/2011 16:51",
		"JumpZero:" : "eem 2/14/2009 19:45",
		"Label" : "eem 11/2/2012 10:46",
		"LoadEffectiveAddressMw:r:R:" : "eem 2/10/2009 17:58",
		"LogicalShiftLeftCq:R:" : "eem 2/10/2009 17:58",
		"LogicalShiftLeftR:R:" : "eem 2/10/2009 17:58",
		"LogicalShiftRightCq:R:" : "eem 2/10/2009 17:58",
		"LogicalShiftRightR:R:" : "eem 2/10/2009 17:58",
		"MoveAw:R:" : "eem 2/10/2009 17:58",
		"MoveCq:R:" : "eem 2/10/2009 17:58",
		"MoveCw:R:" : "eem 2/10/2009 17:58",
		"MoveM16:r:R:" : "eem 2/25/2009 23:06",
		"MoveM64:r:Rd:" : "eem 4/16/2009 09:11",
		"MoveMb:r:R:" : "eem 2/10/2009 17:58",
		"MoveMw:r:R:" : "eem 2/10/2009 17:58",
		"MoveR:Aw:" : "eem 2/10/2009 17:58",
		"MoveR:Mb:r:" : "eem 4/26/2010 12:17",
		"MoveR:Mw:r:" : "eem 2/10/2009 17:58",
		"MoveR:R:" : "eem 2/10/2009 17:58",
		"MoveR:Xwr:R:" : "eem 4/26/2010 12:17",
		"MoveRd:M64:r:" : "eem 4/16/2009 09:12",
		"MoveRd:Rd:" : "eem 4/16/2009 09:10",
		"MoveXbr:R:R:" : "eem 2/10/2009 17:58",
		"MoveXwr:R:R:" : "eem 2/10/2009 17:58",
		"MulR:R:" : "eem 9/9/2009 15:57",
		"MulRd:Rd:" : "eem 4/16/2009 09:03",
		"NegateR:" : "eem 2/10/2009 17:58",
		"Nop" : "eem 12/24/2010 09:43",
		"OrCq:R:" : "eem 2/10/2009 17:58",
		"OrCw:R:" : "eem 2/10/2009 17:58",
		"OrR:R:" : "eem 2/10/2009 17:58",
		"PopR:" : "eem 5/6/2009 10:32",
		"PrefetchAw:" : "eem 10/16/2010 18:20",
		"PushCw:" : "eem 5/6/2009 10:37",
		"PushR:" : "eem 5/6/2009 10:37",
		"RetN:" : "eem 2/10/2009 17:58",
		"SqrtRd:" : "eem 4/21/2009 10:44",
		"SubCq:R:" : "eem 2/10/2009 17:58",
		"SubCw:R:" : "eem 2/10/2009 17:58",
		"SubR:R:" : "eem 2/10/2009 17:58",
		"SubRd:Rd:" : "eem 4/16/2009 09:03",
		"XorCw:R:" : "eem 3/11/2009 08:52",
		"XorR:R:" : "eem 2/10/2009 17:58",
		"abortOffset" : "eem 4/28/2009 11:36",
		"abstractInstruction:follows:" : "eem 2/10/2009 11:38",
		"abstractInstructionAt:" : "eem 1/15/2009 21:37",
		"abstractOpcodes" : "eem 2/10/2009 11:38",
		"addBlockStartAt:numArgs:numCopied:span:" : "eem 11/2/2012 10:45",
		"addCleanBlockStarts" : "eem 8/14/2013 16:25",
		"addCogMethodsToHeapMap" : "eem 3/31/2009 18:59",
		"addressIsInFixups:" : "eem 6/21/2013 16:25",
		"addressIsInInstructions:" : "eem 6/21/2013 16:26",
		"addressOfEndOfCase:inCPIC:" : "eem 1/29/2009 14:01",
		"addressSpaceMask" : "eem 7/23/2013 17:06",
		"alignUptoRoutineBoundary:" : "eem 6/23/2012 18:51",
		"allButTopBitOfAddressSpaceMask" : "eem 7/23/2013 17:06",
		"allMachineCodeObjectReferencesValid" : "eem 12/12/2012 11:38",
		"allMethodsHaveCorrectHeader" : "eem 4/5/2009 11:59",
		"allocateBlockStarts:" : "eem 8/14/2013 14:34",
		"allocateOpcodes:bytecodes:" : "eem 11/22/2010 11:08",
		"allocateOpcodes:bytecodes:ifFail:" : "eem 7/18/2013 11:32",
		"annotate:objRef:" : "eem 10/13/2009 12:49",
		"annotate:with:" : "eem 10/5/2009 14:01",
		"annotateAbsolutePCRef:" : "eem 2/10/2011 17:51",
		"annotateBytecode:" : "eem 2/23/2009 11:11",
		"annotateCall:" : "eem 2/23/2009 12:59",
		"annotateNewspeakSend:" : "eem 6/23/2011 09:42",
		"annotateSend:" : "eem 2/23/2009 12:59",
		"assertCStackWellAligned" : "eem 3/30/2009 11:44",
		"assertSaneJumpTarget:" : "eem 6/21/2013 14:44",
		"bcpcsAndDescriptorsFor:do:" : "eem 2/20/2013 14:15",
		"blockCreationBytecodeSizeForHeader:" : "eem 10/31/2012 21:47",
		"blockDispatchFor:perform:arg:" : "eem 11/21/2012 17:00",
		"blockDispatchTargetsFor:perform:arg:" : "eem 11/21/2012 17:00",
		"blockStartAt:" : "eem 2/10/2009 20:33",
		"blockStartPcsIn:" : "eem 2/20/2013 14:15",
		"breakBlock:" : "eem 9/21/2010 18:53",
		"breakMethod" : "eem 10/16/2009 14:21",
		"breakOnImplicitReceiver" : "eem 11/27/2012 14:59",
		"breakPC" : "eem 1/8/2009 10:39",
		"breakPC:" : "eem 11/16/2012 17:13",
		"bytecodeFixupClass" : "eem 11/22/2010 11:08",
		"bytecodePCFor:startBcpc:in:" : "eem 12/12/2012 11:38",
		"bytecodeSetOffsetFor:" : "eem 11/2/2012 10:30",
		"bytecodeSetOffsetForHeader:" : "eem 10/31/2012 21:49",
		"cCoerceSimple:to:" : "eem 2/14/2011 16:29",
		"cFramePointerAddress" : "eem 2/14/2009 18:17",
		"cPIC:HasTarget:" : "eem 4/9/2009 14:51",
		"cPICHasFreedTargets:" : "eem 3/12/2009 11:26",
		"cStackPointerAddress" : "eem 2/14/2009 18:17",
		"canLinkToYoungClasses" : "eem 6/26/2009 12:47",
		"ceBaseFrameReturnPC" : "eem 2/12/2009 17:00",
		"ceCPICMiss:receiver:" : "eem 8/16/2011 13:11",
		"ceCannotResumePC" : "eem 6/23/2009 18:45",
		"ceCaptureCStackPointers" : "eem 7/27/2010 09:57",
		"ceCheckFeatures" : "eem 7/15/2009 13:55",
		"ceEnterCogCodePopReceiverAndClassRegs" : "eem 10/22/2009 18:15",
		"ceEnterCogCodePopReceiverReg" : "eem 10/22/2009 18:15",
		"ceImplicitReceiverFor:receiver:class:" : "eem 7/15/2011 06:36",
		"cePositive32BitIntegerTrampoline" : "eem 2/12/2009 20:20",
		"ceReturnToInterpreterPC" : "eem 6/23/2009 17:56",
		"ceSICMiss:" : "eem 6/14/2013 16:35",
		"ceStoreCheckTrampoline" : "eem 2/12/2009 16:26",
		"checkAssertsEnabledInCogit" : "eem 6/1/2009 17:27",
		"checkEnoughOpcodes" : "eem 8/22/2011 10:23",
		"checkIfValidObjectRef:pc:cogMethod:" : "eem 6/23/2011 11:07",
		"checkIfValidObjectRefAndTarget:pc:cogMethod:" : "eem 8/17/2011 13:44",
		"checkIntegrityOfObjectReferencesInCode:" : "eem 12/12/2012 11:38",
		"checkMaybeObjRefAt:" : "eem 3/31/2009 15:34",
		"checkPrimitiveTableEnablers" : "eem 10/5/2009 14:02",
		"checkValidObjectReferencesInClosedPIC:" : "eem 3/31/2009 15:39",
		"closedPICRefersToUnmarkedObject:" : "eem 3/2/2012 19:23",
		"coInterpreter" : "eem 12/21/2008 19:29",
		"codeEntryFor:" : "eem 3/30/2009 13:51",
		"codeEntryNameFor:" : "eem 3/30/2009 13:50",
		"codeRangesFor:" : "eem 8/17/2013 11:12",
		"cog:selector:" : "eem 7/9/2013 14:57",
		"cogBlockMethodSurrogateAt:" : "eem 2/15/2011 10:14",
		"cogBlockMethodSurrogateClass" : "eem 2/15/2011 10:21",
		"cogCodeBase" : "eem 1/10/2010 16:17",
		"cogCodeConstituents" : "eem 8/13/2012 10:30",
		"cogExtendPIC:CaseNMethod:tag:isMNUCase:" : "eem 8/22/2011 16:42",
		"cogMNUPICSelector:methodOperand:numArgs:" : "eem 10/21/2011 17:04",
		"cogMethodDoesntLookKosher:" : "eem 8/13/2012 10:30",
		"cogMethodOrBlockSurrogateAt:" : "eem 2/15/2011 10:20",
		"cogMethodSurrogateAt:" : "eem 2/15/2011 10:15",
		"cogMethodSurrogateClass" : "eem 2/15/2011 10:21",
		"cogOpenPICSelector:numArgs:" : "eem 12/3/2010 17:00",
		"cogPICSelector:numArgs:Case0Method:Case1Method:tag:isMNUCase:" : "eem 10/21/2011 17:17",
		"cogit" : "eem 2/18/2011 15:39",
		"cogitPostGCAction:" : "eem 8/4/2011 16:06",
		"collectMapEntry:address:into:" : "eem 2/26/2009 12:31",
		"compactCogCompiledCode" : "eem 8/13/2012 10:30",
		"compilationTrace" : "eem 11/25/2010 10:04",
		"compilationTrace:" : "eem 11/25/2010 10:05",
		"compileAbort" : "lw 1/29/2013 23:10",
		"compileAbstractInstructionsFrom:through:" : "eem 11/15/2012 15:37",
		"compileBlockDispatchFrom:to:" : "eem 10/13/2009 13:54",
		"compileBlockEntry:" : "eem 10/11/2011 15:49",
		"compileBlockFrameBuild:" : "eem 4/25/2009 11:05",
		"compileBlockFramelessEntry:" : "eem 4/25/2009 11:05",
		"compileCPIC:Case0:Case1Method:tag:isMNUCase:numArgs:" : "eem 8/22/2011 16:43",
		"compileCPICEntry" : "eem 2/15/2009 10:18",
		"compileClosedPICPrototype" : "eem 8/22/2011 16:43",
		"compileCogMethod:" : "eem 8/14/2013 16:20",
		"compileEntireMethod" : "eem 8/14/2013 15:54",
		"compileEntry" : "eem 8/21/2013 17:00",
		"compileFrameBuild" : "eem 4/25/2009 11:05",
		"compileMNUCPIC:methodOperand:numArgs:" : "eem 8/15/2011 13:18",
		"compileMethodBody" : "eem 1/18/2011 09:57",
		"compileOpenPIC:numArgs:" : "eem 12/4/2010 21:18",
		"compilePICProlog:" : "eem 12/3/2010 17:16",
		"compilePrimitive" : "eem 9/20/2011 18:04",
		"compileProlog" : "eem 12/3/2010 16:52",
		"compileTrampolineFor:callJumpBar:numArgs:arg:arg:arg:arg:saveRegs:resultReg:" : "eem 1/30/2013 10:32",
		"computeEntryOffsets" : "eem 8/22/2012 10:43",
		"computeMaximumSizes" : "eem 2/10/2009 19:03",
		"cr" : "eem 10/12/2009 01:07",
		"disassemble:from:to:arg:" : "eem 1/9/2011 11:12",
		"disassembleCachedOop:" : "eem 1/11/2013 14:18",
		"disassembleCodeAt:" : "eem 1/11/2013 13:07",
		"disassembleFrom:to:" : "eem 12/4/2010 08:50",
		"disassembleFrom:to:labels:on:" : "eem 2/5/2009 16:24",
		"disassembleMethod:" : "eem 10/12/2009 01:07",
		"disassembleMethod:on:" : "eem 8/16/2013 11:17",
		"disassembleMethodFor:" : "eem 6/10/2010 17:15",
		"disassembleTrampolineFor:" : "eem 10/21/2010 22:51",
		"disassembleTrampolineTable" : "eem 12/4/2010 08:46",
		"doesNotUnderstand:" : "eem 12/4/2010 19:25",
		"dynSuperEntryOffset" : "eem 6/27/2011 13:34",
		"endPCOf:" : "eem 2/20/2013 14:15",
		"ensureFixupAt:" : "eem 11/25/2010 13:29",
		"enterCogCodePopReceiver" : "eem 11/25/2009 12:22",
		"enterCogCodePopReceiverAndClassRegs" : "eem 11/25/2009 12:23",
		"entryOffset" : "eem 2/12/2009 17:01",
		"extABytecode" : "eem 11/2/2012 11:15",
		"extBBytecode" : "eem 11/2/2012 11:15",
		"fillInBlockHeadersAt:" : "eem 1/9/2011 10:42",
		"fillInCPICHeader:size:numArgs:numCases:hasMNUCase:selector:" : "eem 8/9/2011 16:07",
		"fillInMethodHeader:size:selector:" : "eem 8/21/2013 15:31",
		"fillInOPICHeader:size:numArgs:selector:" : "eem 8/9/2011 16:07",
		"findBlockMethodWithEntry:startBcpc:" : "eem 1/9/2011 12:04",
		"findMapLocationForMcpc:inMethod:" : "eem 2/11/2011 14:05",
		"findMcpc:Bcpc:MatchingBcpc:" : "eem 2/3/2011 06:10",
		"findMcpc:Bcpc:MatchingMcpc:" : "eem 2/3/2011 06:10",
		"findMethodForStartBcpc:inHomeMethod:" : "eem 12/12/2012 11:39",
		"fixupAt:" : "eem 12/11/2010 18:02",
		"freePICsWithFreedTargets" : "eem 8/13/2012 13:13",
		"gen:" : "eem 11/2/2012 10:46",
		"gen:operand:" : "eem 11/2/2012 10:46",
		"gen:operand:operand:" : "eem 11/2/2012 10:46",
		"gen:operand:operand:operand:" : "eem 11/2/2012 10:46",
		"genActiveContextTrampoline" : "eem 12/12/2012 11:39",
		"genCheckForInterruptsTrampoline" : "eem 12/12/2012 11:39",
		"genEnilopmartFor:and:and:called:" : "eem 12/11/2010 08:21",
		"genEnilopmartFor:and:called:" : "eem 11/6/2010 15:38",
		"genEnilopmartFor:called:" : "eem 11/6/2010 15:39",
		"genExternalizePointersForPrimitiveCall" : "eem 2/10/2009 12:10",
		"genGetLeafCallStackPointer" : "eem 3/29/2009 22:31",
		"genInnerPICAbortTrampoline:" : "eem 12/12/2012 11:40",
		"genLoadCStackPointers" : "eem 3/26/2009 11:26",
		"genLoadCStackPointersForPrimCall" : "eem 6/15/2009 09:38",
		"genLoadStackPointers" : "eem 5/5/2009 09:49",
		"genMethodAbortTrampoline" : "eem 12/12/2012 11:40",
		"genNonLocalReturnTrampoline" : "eem 12/12/2012 11:40",
		"genPICAbortTrampoline" : "eem 12/4/2010 08:59",
		"genSafeTrampolineFor:called:arg:" : "eem 3/13/2009 10:51",
		"genSafeTrampolineFor:called:arg:arg:" : "eem 3/15/2009 07:00",
		"genSaveStackPointers" : "eem 2/10/2009 12:10",
		"genTrampolineFor:called:" : "eem 3/30/2009 13:45",
		"genTrampolineFor:called:arg:" : "eem 3/30/2009 13:45",
		"genTrampolineFor:called:arg:arg:" : "eem 3/13/2009 10:51",
		"genTrampolineFor:called:arg:arg:arg:" : "eem 3/13/2009 10:51",
		"genTrampolineFor:called:arg:arg:arg:arg:" : "eem 3/13/2009 10:52",
		"genTrampolineFor:called:arg:arg:arg:result:" : "eem 3/13/2009 10:52",
		"genTrampolineFor:called:arg:arg:result:" : "eem 3/13/2009 10:52",
		"genTrampolineFor:called:arg:result:" : "eem 3/13/2009 10:52",
		"genTrampolineFor:called:callJumpBar:numArgs:arg:arg:arg:arg:saveRegs:resultReg:appendOpcodes:" : "eem 7/14/2011 09:48",
		"generateCaptureCStackPointers:" : "eem 3/26/2009 10:43",
		"generateClosedPICPrototype" : "eem 9/22/2011 17:51",
		"generateCogMethod:" : "eem 3/1/2013 16:00",
		"generateEnilopmarts" : "eem 12/12/2012 11:40",
		"generateInstructionsAt:" : "eem 4/16/2009 21:37",
		"generateMapAt:start:" : "eem 6/23/2012 18:51",
		"generateMissAbortTrampolines" : "eem 12/3/2010 17:04",
		"generateNewspeakRuntime" : "eem 1/7/2013 12:43",
		"generateOpenPICPrototype" : "eem 3/6/2011 18:03",
		"generateRunTimeTrampolines" : "eem 12/12/2012 11:41",
		"generateSendTrampolines" : "eem 12/12/2012 11:41",
		"generateStackPointerCapture" : "eem 12/12/2012 11:42",
		"generateTrampolines" : "eem 7/14/2011 11:40",
		"generateVMOwnerLockFunctions" : "eem 6/22/2011 13:50",
		"generatorAt:" : "eem 11/17/2010 21:26",
		"getCFramePointer" : "eem 7/15/2011 06:39",
		"getCStackPointer" : "eem 7/15/2011 06:39",
		"getLiteral:" : "eem 3/1/2013 16:32",
		"halt" : "eem 10/22/2010 10:49",
		"halt:" : "eem 9/2/2011 17:10",
		"handleCallOrJumpSimulationTrap:" : "eem 7/18/2013 16:02",
		"handleReadSimulationTrap:" : "eem 1/29/2009 09:26",
		"handleSimulationTrap:" : "eem 10/19/2010 18:13",
		"handleWriteSimulationTrap:" : "eem 2/14/2011 15:16",
		"incrementUsageOfTargetIfLinkedSend:mcpc:ignored:" : "eem 7/6/2011 14:17",
		"initialClosedPICUsageCount" : "eem 3/11/2009 21:00",
		"initialMethodUsageCount" : "eem 3/7/2009 10:05",
		"initialOpenPICUsageCount" : "eem 3/11/2009 20:59",
		"initialize" : "eem 8/21/2013 15:48",
		"initializeBackend" : "eem 12/11/2010 19:56",
		"initializeCodeZoneFrom:upTo:" : "eem 10/3/2011 13:52",
		"initializeFixupAt:" : "eem 11/24/2010 09:50",
		"initializeProcessor" : "eem 10/19/2010 14:52",
		"initializeProcessorStack:" : "eem 9/18/2009 14:10",
		"initialized" : "eem 7/27/2010 10:07",
		"innermostSubMethodFor:in:startingAt:" : "eem 1/8/2011 11:48",
		"interpretOffset" : "eem 2/18/2009 21:04",
		"inverseBranchFor:" : "eem 11/18/2010 07:13",
		"isAbsentReceiverSendAt:in:" : "eem 1/11/2013 18:02",
		"isBackwardBranch:at:exts:in:" : "eem 11/15/2012 15:47",
		"isCFramePointerInUse" : "eem 3/26/2009 11:13",
		"isPCMappedAnnotation:alternateInstructionSet:" : "eem 3/18/2013 17:15",
		"isPCWithinMethodZone:" : "eem 8/13/2012 10:30",
		"isSendAnnotation:" : "eem 6/23/2011 11:06",
		"isSendReturnPC:" : "eem 8/13/2012 10:30",
		"labelForPC:" : "eem 2/15/2009 17:13",
		"labelForSimulationAccessor:" : "eem 5/6/2009 15:21",
		"lastOpcode" : "eem 2/10/2009 19:26",
		"latestContinuationPCFor:at:exts:in:" : "eem 11/1/2012 14:36",
		"linkSendAt:in:to:offset:receiver:" : "eem 8/13/2012 10:30",
		"lookup:for:methodAndErrorSelectorInto:" : "eem 12/7/2012 14:08",
		"lookupAddress:" : "eem 8/13/2012 10:30",
		"lookupCHexString:" : "eem 1/22/2009 17:05",
		"mapEndFor:" : "eem 2/11/2011 14:04",
		"mapFor:bcpc:performUntil:arg:" : "eem 3/18/2013 17:20",
		"mapFor:do:" : "eem 10/17/2010 13:16",
		"mapFor:performUntil:arg:" : "eem 2/11/2011 14:06",
		"mapObjectReferencesInClosedPIC:" : "eem 8/5/2011 09:42",
		"mapObjectReferencesInGeneratedRuntime" : "eem 7/14/2011 10:44",
		"mapObjectReferencesInMachineCode:" : "eem 8/13/2012 10:58",
		"mapObjectReferencesInMachineCodeForBecome" : "eem 7/30/2013 16:49",
		"mapObjectReferencesInMachineCodeForFullGC" : "eem 12/12/2012 11:42",
		"mapObjectReferencesInMachineCodeForIncrementalGC" : "eem 12/12/2012 11:42",
		"mapPrimitive:withIndexToUniqueAddress:" : "eem 7/23/2013 17:07",
		"mapStartFor:" : "eem 2/11/2011 14:09",
		"markAndTraceMachineCodeForIncrementalGC" : "eem 10/13/2009 13:38",
		"markAndTraceObjectReferencesInGeneratedRuntime" : "eem 7/14/2011 10:43",
		"markAndTraceObjectReferencesInMachineCode" : "eem 7/14/2011 10:41",
		"markAndTraceObjectsOrFreeMachineCode:" : "eem 6/24/2009 19:31",
		"markAndTraceOrFreeCogMethod:firstVisit:" : "eem 7/3/2010 17:58",
		"markAndTraceOrFreeMachineCodeForFullGC" : "eem 7/14/2011 10:43",
		"markLiteralsAndUnlinkIfUnmarkedSend:pc:method:" : "eem 6/23/2011 16:30",
		"markLiteralsAndUnlinkIfUnmarkedSendOrPushImplicit:pc:method:" : "eem 7/26/2011 14:29",
		"markLiteralsAndUnlinkUnmarkedSendsIn:" : "eem 12/12/2012 11:42",
		"markMethodAndReferents:" : "eem 12/12/2012 11:42",
		"markNSYoungObjects:pc:method:" : "eem 7/26/2011 10:30",
		"markYoungObjects:pc:method:" : "eem 6/23/2011 16:31",
		"markYoungObjectsIn:" : "eem 12/12/2012 11:42",
		"maxCogMethodAddress" : "eem 11/25/2009 11:13",
		"maybeAllocAndInitCounters" : "eem 8/14/2013 16:21",
		"maybeFreeCogMethodDoesntLookKosher:" : "eem 7/10/2009 13:57",
		"maybeGenerateCheckFeatures" : "eem 4/16/2009 13:30",
		"maybeGenerateICacheFlush" : "eem 4/16/2009 11:52",
		"mcPCFor:startBcpc:in:" : "eem 12/12/2012 11:43",
		"method:hasSameCodeAs:" : "eem 2/20/2013 14:53",
		"method:hasSameCodeAs:checkPenultimate:" : "eem 3/1/2013 16:14",
		"methodZone" : "eem 3/10/2009 09:05",
		"minCallAddress" : "eem 9/20/2011 17:21",
		"minCogMethodAddress" : "eem 2/21/2009 16:45",
		"mnuOffset" : "eem 4/13/2009 20:23",
		"nExtensionsFor:in:" : "eem 11/5/2012 16:54",
		"needsFrameIfInBlock:" : "eem 8/17/2013 18:47",
		"needsFrameNever:" : "eem 8/17/2013 18:47",
		"nextBytecodePCFor:at:exts:in:" : "eem 11/1/2012 16:01",
		"noAssertMethodClassAssociationOf:" : "eem 8/17/2011 12:28",
		"noCheckEntryOffset" : "eem 2/12/2009 17:02",
		"noCogMethodsMaximallyMarked" : "eem 3/23/2009 09:26",
		"noContextSwitchBlockEntryOffset" : "eem 1/9/2011 10:40",
		"noTargetsFreeInClosedPIC:" : "eem 3/23/2009 12:33",
		"notYetImplemented" : "eem 2/12/2009 15:53",
		"objectMemory" : "eem 10/13/2009 12:40",
		"objectRepresentation" : "eem 11/29/2010 14:33",
		"offset:of:" : "eem 2/15/2011 10:26",
		"offsetAndSendTableFor:annotation:into:" : "eem 8/16/2011 08:24",
		"outputInstructionsAt:" : "eem 10/13/2009 05:39",
		"outputInstructionsForGeneratedRuntimeAt:" : "eem 8/13/2012 10:29",
		"patchToOpenPICFor:numArgs:receiver:" : "eem 6/26/2009 14:39",
		"pc:isWithinMethod:" : "eem 2/19/2009 18:54",
		"primitiveGeneratorOrNil" : "eem 10/5/2009 14:03",
		"print:" : "EstebanLorenzano 5/14/2013 15:21",
		"printCogMethodFor:" : "eem 3/15/2009 06:37",
		"printInstructions" : "eem 9/27/2010 14:44",
		"printInstructions:" : "eem 3/30/2009 12:31",
		"printMapEntry:mcpc:args:" : "eem 3/18/2013 17:19",
		"printMcpc:Bcpc:on:" : "eem 1/25/2011 17:47",
		"printMethodHeader:on:" : "eem 7/23/2013 16:18",
		"printNum:" : "eem 5/30/2010 13:23",
		"printOnTrace" : "eem 11/15/2012 10:15",
		"printPCMapPairsFor:on:" : "eem 1/26/2011 11:36",
		"printRegisters" : "eem 9/27/2010 14:44",
		"printRegisters:" : "eem 1/17/2009 12:21",
		"printTrampolineTable" : "eem 3/31/2009 15:40",
		"processor" : "eem 2/11/2009 09:07",
		"processorHasDivQuoRem:" : "eem 9/9/2009 11:55",
		"processorHasDoublePrecisionFloatingPointSupport:" : "eem 4/16/2009 13:28",
		"processorHasMultiply:" : "eem 9/9/2009 11:54",
		"recordBlockTrace" : "eem 11/15/2012 10:15",
		"recordEventTrace" : "eem 11/15/2012 10:15",
		"recordGeneratedRunTime:address:" : "eem 3/13/2009 12:09",
		"recordInstruction:" : "eem 9/30/2009 19:29",
		"recordLastInstruction" : "eem 1/7/2011 12:38",
		"recordOverflowTrace" : "eem 11/27/2012 14:59",
		"recordPrimTrace" : "eem 11/15/2012 10:15",
		"recordPrimTraceFunc" : "eem 4/28/2010 14:08",
		"recordRegisters" : "eem 9/30/2009 19:40",
		"recordRunTimeObjectReferences" : "eem 7/14/2011 16:09",
		"recordSendTrace" : "eem 11/15/2012 10:15",
		"relativeLabelForPC:" : "eem 12/5/2010 11:58",
		"relocateCallsAndSelfReferencesInMethod:" : "eem 12/12/2012 11:43",
		"relocateCallsInClosedPIC:" : "eem 12/11/2010 15:07",
		"relocateIfCallOrMethodReference:mcpc:delta:" : "eem 6/23/2011 16:30",
		"relocateMethodsPreCompaction" : "eem 6/26/2009 12:46",
		"remapIfObjectRef:pc:hasYoung:" : "eem 6/23/2011 16:32",
		"remapNSIfObjectRef:pc:hasYoung:" : "eem 8/10/2012 11:34",
		"reportError:" : "eem 2/12/2009 22:10",
		"reportLastNInstructions" : "eem 12/10/2010 18:28",
		"scanBlock:" : "eem 8/17/2013 18:44",
		"scanForCleanBlocks" : "eem 8/14/2013 15:10",
		"scanMethod" : "eem 8/17/2013 18:46",
		"selectorForSendAt:annotation:" : "eem 11/4/2012 08:02",
		"selectorForSendBefore:in:" : "eem 11/4/2012 08:12",
		"sendTrace" : "eem 11/15/2012 10:16",
		"sendTrace:" : "eem 11/15/2012 10:18",
		"setBreakMethod:" : "eem 2/21/2009 11:08",
		"setCFramePointer:" : "eem 7/15/2011 06:30",
		"setCStackPointer:" : "eem 7/15/2011 06:30",
		"setInterpreter:" : "eem 11/15/2012 10:16",
		"setPostCompileHook:" : "eem 4/7/2009 19:48",
		"setSelectorOf:to:" : "eem 5/31/2010 12:22",
		"setThreadManager:" : "eem 6/14/2010 12:30",
		"shortcutTrampoline:to:" : "eem 12/11/2010 14:21",
		"shouldBeImplemented" : "eem 11/15/2012 14:09",
		"simulateCallOf:nextpc:memory:" : "eem 10/18/2010 13:58",
		"simulateCogCodeAt:" : "lw 8/8/2012 12:08",
		"simulateEnilopmart:numArgs:" : "eem 8/13/2012 10:30",
		"simulateLeafCallOf:" : "eem 10/20/2010 17:11",
		"simulateLeafReturnIn:" : "eem 10/18/2010 13:57",
		"simulatedAddressFor:" : "eem 7/23/2013 17:09",
		"simulatedReadWriteVariableAddress:in:" : "eem 10/16/2010 18:20",
		"simulatedTrampolineFor:" : "eem 10/5/2012 11:39",
		"simulatedVariableAddress:in:" : "eem 10/16/2010 18:14",
		"singleStep" : "eem 9/29/2009 22:24",
		"singleStep:" : "eem 1/17/2009 12:21",
		"spanFor:at:exts:in:" : "eem 11/2/2012 13:13",
		"spanForCleanBlockStartingAt:" : "eem 8/14/2013 15:29",
		"startMcpcAndCogMethodForMcpc:in:do:" : "eem 7/9/2009 17:45",
		"subMethodsAsRangesFor:" : "eem 2/15/2011 10:22",
		"testBcToMcPcMappingForMethod:" : "eem 11/2/2012 14:35",
		"testMcToBcPcMappingForMethod:" : "eem 3/18/2013 17:20",
		"testPCMappingForMethod:" : "eem 1/8/2011 12:15",
		"traceLinkedSendOffset" : "eem 3/10/2009 15:41",
		"traceMap:byte:at:for:" : "eem 10/31/2012 22:06",
		"traceStores:" : "eem 3/15/2009 06:44",
		"trampolineName:numArgs:" : "eem 12/3/2010 18:42",
		"tryLockVMOwner" : "eem 10/21/2010 22:59",
		"unknownBytecode" : "eem 2/10/2009 18:53",
		"unlinkAllSends" : "eem 12/12/2012 11:43",
		"unlinkIfLinkedSend:pc:ignored:" : "eem 3/19/2013 09:07",
		"unlinkIfLinkedSend:pc:of:" : "eem 3/19/2013 09:09",
		"unlinkIfLinkedSend:pc:to:" : "eem 3/19/2013 09:15",
		"unlinkIfLinkedSendToFree:pc:ignored:" : "eem 6/23/2011 16:30",
		"unlinkSendsOf:isMNUSelector:" : "eem 12/12/2012 11:43",
		"unlinkSendsTo:andFreeIf:" : "eem 3/19/2013 09:19",
		"unlinkSendsToFree" : "eem 12/12/2012 11:43",
		"unlockVMOwner" : "eem 7/16/2009 14:51",
		"updateMaybeObjRefAt:" : "eem 8/5/2011 09:40",
		"voidCogCompiledCode" : "eem 9/8/2009 14:34",
		"withAnnotation:pc:evaluate:" : "eem 10/17/2010 13:17" } }
