{
	"class" : {
		"additionalHeadersDo:" : "eem 7/2/2008 10:02",
		"baseHeaderSize" : "tpr 4/1/2005 14:25",
		"bytesPerWord" : "ikp 9/2/2004 14:08",
		"declareCAsOop:in:" : "dtl 4/14/2007 16:14",
		"declareCVarsIn:" : "eem 7/21/2011 15:15",
		"implicitReturnTypeFor:" : "eem 3/3/2009 10:22",
		"initBytesPerWord:" : "eem 7/14/2008 10:31",
		"initialize" : "eem 8/15/2013 17:07",
		"initializeCompactClassIndices" : "eem 3/11/2009 18:40",
		"initializeImmediates" : "eem 10/26/2012 18:02",
		"initializeObjectHeaderConstants" : "eem 9/6/2011 15:15",
		"initializePrimitiveErrorCodes" : "eem 7/23/2010 14:46",
		"initializeSpecialObjectIndices" : "eem 2/21/2013 10:57",
		"initializeWithOptions:" : "eem 10/26/2012 17:51",
		"isNonArgumentImplicitReceiverVariableName:" : "eem 2/27/2013 15:32",
		"mustBeGlobal:" : "eem 8/11/2008 10:23",
		"requiredMethodNames:" : "eem 8/21/2013 13:16",
		"unsignedIntegerSuffix" : "eem 7/6/2010 15:48",
		"unsignedLongLongSuffix" : "nice 8/27/2012 00:10" },
	"instance" : {
		"aComment" : "eem 10/22/2008 10:29",
		"aFinalizationComment" : "eem 1/11/2008 10:42",
		"accessibleObjectAfter:" : "dtl (auto pragmas 12/08) 4/22/2007 20:46",
		"addGCRoot:" : "eem 5/19/2009 09:58",
		"addressCouldBeObj:" : "eem 5/10/2011 11:10",
		"addressCouldBeObjWhileForwarding:" : "eem 5/10/2011 11:10",
		"addressCouldBeOop:" : "eem 5/29/2009 17:14",
		"adjustAllOopsBy:" : "dtl (auto pragmas 12/08) 4/22/2007 20:48",
		"adjustFieldsAndClassOf:by:" : "eem (auto pragmas 12/08) 11/5/2008 09:51",
		"allYoung:and:" : "eem 1/11/2013 11:39",
		"allocate:headerSize:h1:h2:h3:doFill:format:" : "eem 1/23/2009 17:48",
		"allocateChunk:" : "dtl (auto pragmas 12/08) 4/22/2007 21:04",
		"allocateMemoryOfSize:" : "eem 6/25/2011 13:56",
		"badContextSize:" : "eem 2/28/2013 08:04",
		"baseHeader:" : "",
		"baseHeader:put:" : "eem 6/11/2007 14:41",
		"beRootIfOld:" : "eem 4/2/2009 22:41",
		"beRootWhileForwarding:" : "eem 1/17/2013 13:04",
		"become:with:" : "brp 9/19/2003 16:09",
		"become:with:twoWay:copyHash:" : "eem 9/18/2008 09:44",
		"biasToGrow" : "ar 5/18/2007 07:53",
		"biasToGrowCheckGCLimit" : "eem 2/13/2009 06:48",
		"booleanObjectOf:" : "eem 10/26/2012 17:00",
		"byteLengthOf:" : "eem 2/20/2013 14:14",
		"byteSizeOf:" : "eem 6/6/2010 08:05",
		"byteSwapByteObjectsFrom:to:flipFloatsIf:" : "eem 8/1/2013 11:42",
		"byteSwapped:" : "eem 7/12/2011 14:18",
		"bytesLeft:" : "ar 2/25/2001 17:45",
		"bytesPerWord" : "ikp 9/2/2004 13:54",
		"changeClassOf:to:" : "eem 2/27/2013 11:21",
		"characterTable" : "eem 2/15/2009 11:58",
		"checkAddress:" : "dtl 4/22/2007 18:33",
		"checkCompactIndex:isClass:named:" : "eem 12/20/2012 11:06",
		"checkHeapIntegrity" : "eem 8/1/2013 11:37",
		"checkOkayOop:" : "eem 1/12/2013 17:31",
		"checkOkayYoungReferrer:" : "eem 1/16/2013 17:04",
		"checkOopIntegrity:named:" : "eem 6/19/2009 15:53",
		"checkOopIntegrity:named:index:" : "eem 6/19/2009 15:53",
		"checkedByteAt:" : "",
		"checkedByteAt:put:" : "",
		"checkedLongAt:" : "eem 8/19/2010 12:30",
		"checkedLongAt:put:" : "",
		"chunkFromOop:" : "JMM 12/4/2002 19:55",
		"classAlien" : "eem 11/25/2008 17:10",
		"classArray" : "eem 4/2/2009 22:50",
		"classBitmap" : "ar 10/7/1998 18:06",
		"classByteArray" : "ar 10/7/1998 18:06",
		"classCharacter" : "ar 10/7/1998 18:07",
		"classExternalAddress" : "ar 11/21/1999 00:50",
		"classExternalData" : "ar 11/17/1999 18:23",
		"classExternalFunction" : "ar 11/17/1999 18:23",
		"classExternalLibrary" : "ar 11/17/1999 19:45",
		"classExternalStructure" : "ar 11/21/1999 15:23",
		"classFloat" : "eem 4/20/2009 20:58",
		"classHeader:" : "eem 8/21/2013 12:53",
		"classLargeNegativeInteger" : "ar 11/21/1999 23:22",
		"classLargePositiveInteger" : "ar 10/7/1998 18:07",
		"classMutex" : "eem 4/20/2009 13:39",
		"classPoint" : "ar 10/7/1998 18:07",
		"classSemaphore" : "ar 10/7/1998 18:11",
		"classSmallInteger" : "eem 3/12/2009 11:31",
		"classString" : "eem 1/2/2013 17:37",
		"classUnsafeAlien" : "eem 11/25/2008 17:10",
		"clearLeakMapAndMapAccessibleObjects" : "eem 5/9/2011 14:36",
		"clearRootsTable" : "eem 1/18/2013 10:11",
		"clone:" : "eem 8/6/2011 23:19",
		"compactClassAt:" : "eem 12/20/2012 11:03",
		"compactClassIndexOf:" : "eem 8/21/2013 12:53",
		"compactClassIndexOfHeader:" : "eem 3/31/2009 22:19",
		"compactIndexOfClass:" : "eem 11/30/2010 15:51",
		"containOnlyMutableOops:and:" : "eem 12/11/2012 16:19",
		"containOnlyOops:" : "eem 9/16/2008 14:25",
		"containOnlyOops:and:" : "di 8/3/2004 13:12",
		"copyObj:toSegment:addr:stopAt:saveOopAt:headerAt:" : "eem 6/3/2010 15:05",
		"displayObject" : "ar 10/7/1998 18:12",
		"endOfMemory" : "eem 6/8/2010 17:12",
		"endOfMemory:" : "eem 6/8/2010 17:12",
		"ensureBehaviorHash:" : "eem 10/18/2010 10:23",
		"enterIntoClassTable:" : "eem 7/21/2010 14:31",
		"existImmutableReferencesToForwardedInRangeFrom:to:" : "eem 4/17/2008 15:27",
		"extraHeaderBytes:" : "JMM (auto pragmas 12/08) 7/7/2003 14:18",
		"falseObject" : "eem 3/26/2009 19:49",
		"fetchByte:ofObject:" : "eem 8/21/2013 12:54",
		"fetchClassOf:" : "eem 12/20/2012 11:07",
		"fetchClassOfNonInt:" : "eem 12/20/2012 11:08",
		"fetchLong32:ofObject:" : "tpr 6/6/2005 19:29",
		"fetchLong32LengthOf:" : "di 7/4/2004 11:11",
		"fetchPointer:ofObject:" : "eem 6/21/2013 14:57",
		"fetchWordLengthOf:" : "di 7/4/2004 09:34",
		"finalizeReference:" : "eem 8/1/2013 10:53",
		"firstAccessibleObject" : "eem 5/9/2011 14:40",
		"firstFixedField:" : "EstebanLorenzano 2/13/2013 15:51",
		"firstIndexableField:" : "eem 10/2/2010 12:40",
		"firstObject" : "",
		"fixedFieldsOf:format:length:" : "eem 10/13/2009 05:12",
		"forceTenureFlag" : "eem 6/8/2010 17:12",
		"forceTenureFlag:" : "eem 6/8/2010 17:12",
		"formatOf:" : "eem (auto pragmas 12/08) 9/3/2008 12:09",
		"formatOfClass:" : "eem 10/13/2009 05:03",
		"formatOfHeader:" : "eem (auto pragmas 12/08) 9/3/2008 12:09",
		"forward:to:savingOopAt:andHeaderAt:" : "di 3/24/1999 16:10",
		"forwardingPointerOf:" : "eem 8/26/2009 11:51",
		"freeObject:" : "eem 2/20/2013 13:16",
		"freeObject:header:" : "eem 2/20/2013 13:12",
		"fullCompaction" : "tpr 3/24/2004 22:02",
		"fullGC" : "eem 2/28/2012 14:48",
		"fwdBlockGet:" : "di 1/12/1999 14:09",
		"fwdBlockValid:" : "eem 4/9/2009 16:49",
		"fwdTableInit:" : "eem 4/4/2009 20:10",
		"fwdTableSize:" : "di (auto pragmas 12/08) 7/1/2004 15:30",
		"gcBiasToGrow" : "eem 6/8/2010 17:12",
		"gcBiasToGrow:" : "eem 6/8/2010 17:12",
		"gcBiasToGrowGCLimit" : "eem 6/8/2010 17:12",
		"gcBiasToGrowGCLimit:" : "eem 6/8/2010 17:12",
		"gcBiasToGrowThreshold" : "eem 6/8/2010 17:12",
		"gcBiasToGrowThreshold:" : "eem 6/8/2010 17:12",
		"gcStartUsecs" : "eem 6/8/2010 17:12",
		"goodContextSize:" : "eem 2/28/2013 08:05",
		"growHeadroom" : "eem 6/8/2010 17:12",
		"growHeadroom:" : "eem 6/8/2010 17:12",
		"growObjectMemory:" : "eem 4/4/2009 20:08",
		"hashBitsOf:" : "eem 8/31/2009 13:37",
		"headerType:" : "eem 6/14/2011 17:58",
		"headerTypeOfHeader:" : "eem 6/14/2011 17:56",
		"headerWhileForwardingOf:" : "eem 6/2/2010 15:26",
		"imageSegmentVersion" : "tk 12/4/1999 05:41",
		"incCompBody" : "di (auto pragmas 12/08) 7/1/2004 14:55",
		"incCompMakeFwd" : "dtl (auto pragmas 12/08) 4/22/2007 21:21",
		"incCompMove:" : "eem 8/26/2009 11:52",
		"incrementalCompaction" : "tpr 3/24/2004 22:03",
		"incrementalGC" : "eem 1/18/2013 10:21",
		"initForwardBlock:mapping:to:withBackPtr:" : "eem 5/12/2011 16:28",
		"initWeakTableForIncrementalGC:" : "eem 2/28/2012 14:43",
		"initialInstanceOf:" : "tpr 3/24/2004 21:54",
		"initialize" : "eem 6/8/2010 18:07",
		"initializeMemoryFirstFree:" : "eem 4/4/2009 20:11",
		"initializeObjectMemory:" : "eem 1/18/2013 10:10",
		"instSpecOfClass:" : "eem 9/6/2011 15:17",
		"instanceAfter:" : "eem 4/14/2009 10:43",
		"instanceSizeOf:" : "eem 11/18/2009 16:19",
		"instantiateClass:indexableSize:" : "eem 12/7/2012 14:33",
		"instantiateContext:sizeInBytes:" : "eem 1/23/2009 17:42",
		"instantiateSmallClass:sizeInBytes:" : "eem 1/23/2009 17:43",
		"integerObjectOf:" : "eem 7/18/2012 16:54",
		"integerValueOf:" : "",
		"interpreter" : "eem 7/16/2010 15:12",
		"is:instanceOf:compactClassIndex:" : "eem 12/20/2012 10:59",
		"isArray:" : "ar 12/5/2003 20:01",
		"isArrayNonInt:" : "ar 12/5/2003 20:02",
		"isBytes:" : "ar 11/16/2003 01:09",
		"isBytesNonInt:" : "ar 11/16/2003 01:05",
		"isClassOfNonImm:equalTo:" : "eem 12/20/2012 11:05",
		"isClassOfNonImm:equalTo:compactClassIndex:" : "eem 12/20/2012 11:03",
		"isCompiledMethod:" : "eem 7/5/2011 14:55",
		"isCompiledMethodHeader:" : "eem 8/6/2011 22:52",
		"isContext:" : "eem 2/27/2013 13:52",
		"isContextHeader:" : "eem 5/11/2011 12:50",
		"isContextNonInt:" : "eem 9/6/2011 12:24",
		"isFreeObject:" : "",
		"isImmutableWhileForwarding:" : "eem 5/12/2011 10:12",
		"isInFinalizationList:head:" : "IgorStasenko 6/1/2011 19:34",
		"isInMemory:" : "dtl 4/22/2007 20:06",
		"isIntegerObject:" : "",
		"isIntegerValue:" : "eem 6/21/2013 14:57",
		"isMarked:" : "eem 3/23/2009 12:18",
		"isMethodContextHeader:" : "eem 8/1/2013 10:57",
		"isNonIntegerObject:" : "eem 8/21/2013 12:54",
		"isObjImmutable:" : "eem 12/11/2012 16:33",
		"isObjMutable:" : "eem 12/11/2012 16:11",
		"isObjectForwarded:" : "eem 12/19/2008 22:12",
		"isOopCompiledMethod:" : "eem 9/26/2010 11:03",
		"isOopImmutable:" : "eem 12/11/2012 16:11",
		"isOopMutable:" : "eem 12/11/2012 16:11",
		"isPointers:" : "ar 11/16/2003 01:08",
		"isPointersNonInt:" : "ar 11/16/2003 01:05",
		"isWeak:" : "ar 11/16/2003 01:09",
		"isWeakNonInt:" : "ar 11/16/2003 01:05",
		"isWords:" : "ar 11/16/2003 01:09",
		"isWordsNonInt:" : "ar 11/16/2003 01:05",
		"isWordsOrBytes:" : "ar 11/16/2003 01:09",
		"isWordsOrBytesNonInt:" : "ar 11/16/2003 01:06",
		"isYoung:" : "eem 11/25/2009 09:28",
		"isYoungRoot:" : "eem 1/12/2013 17:26",
		"isYoungRootHeader:" : "eem 1/12/2013 17:25",
		"lastHash" : "eem 6/8/2010 17:12",
		"lastHash:" : "eem 6/8/2010 17:12",
		"lastPointerOf:" : "eem 8/21/2013 12:55",
		"lastPointerOf:recordWeakRoot:" : "eem 8/1/2013 11:43",
		"lastPointerWhileForwarding:" : "eem 6/2/2010 15:28",
		"lengthOf:" : "eem 2/20/2009 10:52",
		"lengthOf:baseHeader:format:" : "eem (auto pragmas 12/08) 9/20/2008 19:00",
		"loadImageSegmentFrom:outPointers:" : "eem 6/3/2010 18:12",
		"lowSpaceThreshold" : "eem 6/8/2010 17:12",
		"lowSpaceThreshold:" : "eem 6/8/2010 17:12",
		"lowestFreeAfter:" : "eem 3/3/2009 11:07",
		"mapPointersInObjectsFrom:to:" : "eem 1/12/2013 17:50",
		"markAndTrace:" : "IgorStasenko 5/24/2011 01:04",
		"markPhase" : "eem 1/12/2013 17:41",
		"maxIdentityHash" : "eem 7/19/2010 12:49",
		"maybeSplObj:" : "eem 2/21/2013 10:26",
		"memory" : "eem 6/17/2010 12:51",
		"memory:" : "eem 6/8/2010 17:12",
		"memoryLimit" : "eem 6/8/2010 17:12",
		"minSlotsForShortening" : "eem 2/22/2011 11:25",
		"newObjectHash" : "",
		"nilObject" : "eem 3/26/2009 20:34",
		"nonWeakFieldsOf:" : "eem 8/1/2013 11:08",
		"noteAsRoot:headerLoc:" : "eem 1/18/2013 10:17",
		"objectAfter:" : "eem 5/12/2011 13:46",
		"objectAfterWhileForwarding:" : "eem 4/9/2009 16:54",
		"objectBefore:" : "eem 5/12/2011 13:34",
		"objectExactlyBefore:" : "eem 5/12/2011 13:34",
		"objectIsImmutableAndReferencesForwarded:" : "eem 5/12/2011 10:13",
		"objectMemory" : "eem 10/12/2009 04:17",
		"obsoleteDontUseThisFetchWord:ofObject:" : "tpr 6/7/2005 10:13",
		"okayOop:" : "eem 1/12/2013 17:32",
		"oopFromChunk:" : "JMM 12/4/2002 19:56",
		"oopHasAcceptableClass:" : "eem 4/18/2013 11:48",
		"popRemappableOop" : "eem 4/2/2009 22:48",
		"possibleRootStoreInto:value:" : "dtl (auto pragmas 12/08) 4/22/2007 20:11",
		"prepareForwardingTableForBecoming:with:twoWay:" : "tpr 3/23/2005 12:05",
		"primitiveErrorTable" : "eem 10/28/2009 19:16",
		"primitiveFailCodeAfterCleanup:" : "eem 6/2/2010 17:59",
		"printInstancesOf:" : "eem 7/21/2010 13:53",
		"printMethodReferencesTo:" : "eem 8/1/2013 11:38",
		"printReferencesTo:" : "eem 8/1/2013 11:38",
		"printWronglySizedContexts" : "eem 2/28/2013 13:12",
		"pushRemappableOop:" : "eem 2/28/2012 09:08",
		"remap:" : "eem 6/1/2009 18:33",
		"remapBuffer" : "eem 6/8/2010 17:12",
		"remapBuffer:" : "eem 6/8/2010 17:12",
		"remapBufferCount" : "eem 9/11/2010 15:50",
		"remapClassOf:" : "eem 6/1/2009 18:36",
		"remapFieldsAndClassOf:" : "eem 6/1/2009 18:34",
		"remappedObj:" : "eem 8/26/2009 11:52",
		"removeGCRoot:" : "eem 1/12/2013 18:25",
		"removeYoungRoot:" : "eem 1/18/2013 10:18",
		"restoreHeaderOf:" : "eem 2/20/2013 13:39",
		"restoreHeaderOf:to:" : "eem 2/20/2013 13:39",
		"restoreHeadersAfterBecoming:with:" : "tpr 3/23/2005 12:07",
		"restoreHeadersAfterForwardBecome:" : "eem 1/11/2013 11:58",
		"restoreHeadersFrom:to:from:and:to:from:" : "dtl 4/22/2007 23:40",
		"reverseBytesFrom:to:" : "eem 7/19/2013 09:54",
		"reverseWordsFrom:to:" : "dtl 4/22/2007 23:42",
		"rightType:" : "tpr 3/24/2004 21:49",
		"rootTable" : "eem 6/8/2010 17:12",
		"rootTableCount" : "eem 6/8/2010 17:12",
		"rootTableCount:" : "eem 6/8/2010 17:12",
		"rootTableObject" : "eem 1/18/2013 10:05",
		"safePrintStringOf:" : "eem 6/23/2010 18:15",
		"setEndOfMemory:" : "eem 4/4/2009 20:04",
		"setHashBitsOf:to:" : "eem 6/23/2012 18:52",
		"setMemoryLimit:" : "eem 4/4/2009 20:04",
		"setSizeOfFree:to:" : "go 11/13/1998 17:04",
		"shorten:toIndexableSize:" : "eem 2/27/2013 18:22",
		"shrinkObjectMemory:" : "eem 4/4/2009 20:09",
		"shrinkThreshold" : "eem 6/8/2010 17:12",
		"shrinkThreshold:" : "eem 6/8/2010 17:12",
		"signalLowSpace" : "eem 6/8/2010 17:12",
		"signalLowSpace:" : "eem 6/8/2010 17:12",
		"sizeBitsOf:" : "di 6/11/2004 16:34",
		"sizeBitsOfSafe:" : "go 11/17/1998 15:57",
		"sizeHeader:" : "di 6/11/2004 13:15",
		"sizeOfFree:" : "go 11/13/1998 17:04",
		"slotSizeOf:" : "ar 10/10/1998 21:24",
		"specialObjectsOop" : "eem 12/21/2008 19:32",
		"specialObjectsOop:" : "eem 10/12/2009 08:32",
		"splObj:" : "eem 12/20/2012 11:02",
		"splObj:put:" : "eem 8/26/2010 15:45",
		"startField" : "eem (auto pragmas 12/08) 10/22/2008 11:28",
		"startObj" : "IgorStasenko 5/24/2011 01:04",
		"startOfFreeSpace" : "eem 4/30/2009 10:20",
		"startOfMemory" : "eem 12/7/2012 14:11",
		"statCompMoveCount" : "eem 6/8/2010 17:12",
		"statFullGCUsecs" : "eem 6/8/2010 17:12",
		"statFullGCs" : "eem 6/8/2010 17:12",
		"statGrowMemory" : "eem 6/8/2010 17:12",
		"statIGCDeltaUsecs" : "eem 6/8/2010 17:12",
		"statIncrGCUsecs" : "eem 6/8/2010 17:12",
		"statIncrGCs" : "eem 6/8/2010 17:12",
		"statMarkCount" : "eem 6/8/2010 17:12",
		"statMkFwdCount" : "eem 6/8/2010 17:12",
		"statRootTableCount" : "eem 6/8/2010 17:12",
		"statRootTableOverflows" : "eem 6/8/2010 17:12",
		"statShrinkMemory" : "eem 6/8/2010 17:12",
		"statSpecialMarkCount" : "eem 6/8/2010 17:12",
		"statSurvivorCount" : "eem 6/8/2010 17:12",
		"statSweepCount" : "eem 6/8/2010 17:12",
		"statTenures" : "eem 6/8/2010 17:12",
		"storeByte:ofObject:withValue:" : "ikp 6/9/2004 23:16",
		"storeImageSegmentInto:outPointers:roots:" : "eem 5/10/2011 11:51",
		"storeLong32:ofObject:withValue:" : "di 7/4/2004 08:48",
		"storePointer:ofObject:withValue:" : "dtl 4/22/2007 21:26",
		"storePointerUnchecked:ofObject:withValue:" : "eem 6/14/2010 10:12",
		"storeWord:ofObject:withValue:" : "ikp 3/26/2005 14:29",
		"sufficientSpaceAfterGC:" : "dtl (auto pragmas 12/08) 4/22/2007 20:27",
		"sufficientSpaceToAllocate:" : "eem 6/23/2012 18:53",
		"sufficientSpaceToInstantiate:indexableSize:" : "eem 9/6/2011 15:15",
		"sweepPhase" : "dtl (auto pragmas 12/08) 4/22/2007 21:29",
		"tenuringIncrementalGC" : "eem 11/25/2009 11:09",
		"tenuringThreshold" : "eem 6/8/2010 17:12",
		"tenuringThreshold:" : "eem 6/8/2010 17:12",
		"topRemappableOop" : "eem 4/2/2009 22:48",
		"transfer:from:to:" : "eem 6/1/2010 18:26",
		"trueObject" : "eem 3/26/2009 20:30",
		"updatePointersInRangeFrom:to:" : "dtl (auto pragmas 12/08) 4/22/2007 21:30",
		"updatePointersInRootObjectsFrom:to:" : "dtl (auto pragmas 12/08) 4/22/2007 20:31",
		"upward" : "eem 3/5/2009 12:30",
		"validate" : "eem 7/16/2010 16:10",
		"validate:" : "eem 7/16/2010 15:13",
		"verifyCleanHeaders" : "eem 12/19/2008 22:16",
		"vmEndianness" : "eem 5/28/2010 11:47",
		"weakFinalizerCheck:" : "eem 8/1/2013 10:54" } }
