{
	"class" : {
		"ancilliaryClasses:" : "eem 8/21/2013 12:22",
		"apiExportHeaderName" : "eem 9/4/2009 10:45",
		"declareCVarsIn:" : "eem 7/1/2011 13:39",
		"initializeMiscConstantsWith:" : "eem 6/21/2011 08:55",
		"initializePrimitiveTable" : "eem 7/22/2010 18:40",
		"initializeSchedulerIndices" : "eem 11/3/2010 12:08",
		"isNonArgumentImplicitReceiverVariableName:" : "eem 7/16/2009 13:43",
		"isThreadedVM" : "eem 8/27/2009 11:20",
		"mustBeGlobal:" : "eem 9/28/2010 22:59",
		"sourceFileName" : "eem 9/4/2009 10:45",
		"writeVMHeaderTo:bytesPerWord:" : "eem 10/5/2009 14:43" },
	"instance" : {
		"assertCStackPointersBelongToCurrentThread" : "eem 9/30/2009 18:55",
		"assertCStackPointersBelongToCurrentVMOwner" : "eem 7/27/2010 09:57",
		"assertSaneThreadAndProcess" : "eem 11/5/2010 10:32",
		"bindProcess:toId:" : "eem 7/23/2010 19:12",
		"cStackRangeForCurrentThread" : "eem 9/30/2009 18:53",
		"cStackRangeForCurrentVMOwner" : "eem 9/30/2009 18:54",
		"cStackRangeForThreadIndex:" : "eem 10/19/2010 17:16",
		"cedeToHigherPriorityThreads" : "eem 11/5/2010 09:25",
		"checkForEventsMayContextSwitch:" : "eem 1/17/2013 13:32",
		"checkVMOwnershipFromHeartbeat" : "eem 11/12/2010 12:09",
		"deferStackLimitSmashAround:" : "eem 7/17/2013 12:12",
		"deferStackLimitSmashAround:with:" : "eem 7/17/2013 12:10",
		"disownVM:" : "eem 2/7/2012 11:33",
		"enterSmalltalkExecutive" : "eem 10/26/2010 14:27",
		"enterSmalltalkExecutiveFromCallback" : "eem 11/11/2010 12:23",
		"enterSmalltalkExecutiveImplementation" : "eem 7/16/2013 14:10",
		"forceInterruptCheckFromHeartbeat" : "eem 7/16/2013 14:26",
		"getMaxWaitingPriority" : "eem 8/13/2009 16:42",
		"inGUIThread" : "eem 7/27/2010 12:10",
		"initialEnterSmalltalkExecutive" : "eem (objmem refactor) 6/14/2010 10:15",
		"initialize" : "eem 11/3/2010 13:32",
		"initializeInterpreter:" : "eem 9/11/2010 15:41",
		"initializeProcessorForThreadIndex:" : "eem 9/29/2009 16:41",
		"isAffinedProcess:" : "eem 7/23/2010 17:49",
		"isAffinedThreadId:" : "eem 7/23/2010 17:49",
		"isBoundProcess:" : "eem 8/30/2010 10:02",
		"isBoundThreadId:" : "eem 7/23/2010 17:48",
		"isThreadedVM" : "eem 12/25/2010 14:22",
		"isUnboundThreadId:" : "eem 7/23/2010 17:48",
		"loadInitialContext" : "eem 8/17/2011 13:12",
		"mapInterpreterOops" : "eem 9/12/2010 06:48",
		"markAndTraceInterpreterOops:" : "eem 12/19/2012 09:51",
		"ownVM:" : "eem 7/18/2013 10:55",
		"ownVMFromUnidentifiedThread" : "eem 11/6/2010 18:04",
		"ownerIndexOfProcess:" : "eem 7/23/2010 17:43",
		"ownerIndexOfThreadId:" : "eem 7/23/2010 19:02",
		"preemptDisowningThread" : "eem 12/12/2012 11:36",
		"primitiveProcessBindToThreadId" : "eem 11/3/2010 12:05",
		"primitiveProcessBoundThreadId" : "eem 9/21/2010 18:41",
		"primitiveRelinquishProcessor" : "eem 12/12/2012 11:51",
		"primitiveVMCurrentThreadId" : "eem 9/21/2010 18:40",
		"printLogEntryAt:" : "eem 11/9/2010 08:16",
		"recordThreadSwitchTo:source:" : "eem 11/4/2010 16:38",
		"recordTrace:thing:source:" : "eem 11/9/2010 08:13",
		"removeLink:fromList:" : "eem (objmem refactor) 6/14/2010 10:15",
		"returnToSchedulingLoopAndReleaseVMOrWakeThread:source:" : "eem 12/12/2012 11:36",
		"sendInvokeCallbackContext:" : "eem 11/6/2010 19:11",
		"setImageHeaderFlagsFrom:" : "eem 7/27/2010 12:27",
		"setMaxWaitingPriorityTo:" : "eem 8/13/2009 18:26",
		"setOwnerIndexOfProcess:to:bind:" : "eem (objmem refactor) 6/14/2010 10:15",
		"threadIdFieldOf:" : "eem 7/23/2010 19:00",
		"threadManager" : "eem 9/16/2009 11:10",
		"threadSchedulingLoop:" : "eem 11/3/2010 13:47",
		"threadSwitchIfNecessary:from:" : "eem 9/7/2011 11:09",
		"transferTo:from:" : "eem 7/31/2013 10:25",
		"tryToExecuteSmalltalk:" : "eem 7/18/2013 10:54",
		"vmOwnerLockAddress" : "eem 7/12/2009 10:03",
		"waitingPriorityIsAtLeast:" : "eem 8/15/2009 23:11",
		"wakeHighestPriority" : "eem 6/21/2012 10:15" } }
