{
	"class" : {
		"browsePluginRules:" : "IgorStasenko 6/5/2012 01:56",
		"generate" : "IgorStasenko 3/18/2011 00:59",
		"generateWithSources" : "IgorStasenko 3/18/2011 00:58" },
	"instance" : {
		"addExternalPlugin:" : "IgorStasenko 7/6/2011 05:01",
		"addExternalPlugins:" : "IgorStasenko 7/6/2011 04:58",
		"addInternalPlugin:" : "IgorStasenko 7/6/2011 05:01",
		"addInternalPlugins:" : "IgorStasenko 7/6/2011 04:58",
		"addThirdpartyLibrary:" : "IgorStasenko 9/26/2012 16:13",
		"buildDir" : "GuillermoPolito 6/17/2013 18:26",
		"buildDir:" : "MarianoMartinezPeck 4/4/2011 23:04",
		"buildDirName" : "MarianoMartinezPeck 4/12/2011 21:56",
		"buildScript" : "IgorStasenko 9/18/2012 17:56",
		"cMakeMacros" : "EstebanLorenzano 1/3/2011 08:09",
		"cogitClass" : "IgorStasenko 3/18/2011 00:30",
		"configureB3DAcceleratorPlugin:" : "EstebanLorenzano 1/2/2011 11:15",
		"configureBitBltSimulation:" : "EstebanLorenzano 7/10/2013 14:23",
		"configureBochsIA32Plugin:" : "Igor.Stasenko 12/27/2010 14:00",
		"configureCroquetPlugin:" : "IgorStasenko 6/22/2011 20:26",
		"configureDropPlugin:" : "EstebanLorenzano 1/2/2011 11:16",
		"configureFFIPlugin:" : "EstebanLorenzano 1/2/2011 11:17",
		"configureFT2Plugin:" : "IgorStasenko 6/14/2011 14:42",
		"configureFilePlugin:" : "EstebanLorenzano 1/2/2011 11:17",
		"configureFloatMathPlugin:" : "IgorStasenko 7/5/2011 01:49",
		"configureHostWindowPlugin:" : "EstebanLorenzano 1/2/2011 11:18",
		"configureIA32ABIPlugin:" : "Igor.Stasenko 12/25/2010 03:32",
		"configureInternetConfigPlugin:" : "EstebanLorenzano 1/2/2011 11:18",
		"configureJPEGReadWriter2Plugin:" : "Igor.Stasenko 12/25/2010 03:34",
		"configureJoystickTabletPlugin:" : "EstebanLorenzano 1/2/2011 11:19",
		"configureLocalePlugin:" : "EstebanLorenzano 1/2/2011 11:20",
		"configureMIDIPlugin:" : "EstebanLorenzano 1/2/2011 11:20",
		"configureMpeg3Plugin:" : "Igor.Stasenko 1/15/2011 15:38",
		"configurePlugin:with:" : "Igor.Stasenko 12/29/2010 15:41",
		"configureRePlugin:" : "Igor.Stasenko 12/25/2010 03:37",
		"configureReentrantIA32FFIPlugin:" : "IgorStasenko 3/15/2011 17:25",
		"configureSecurityPlugin:" : "EstebanLorenzano 1/2/2011 11:20",
		"configureSerialPlugin:" : "EstebanLorenzano 1/2/2011 11:21",
		"configureSocketPlugin:" : "EstebanLorenzano 1/3/2011 14:19",
		"configureSoundCodecPlugin:" : "Igor.Stasenko 12/25/2010 03:40",
		"configureSoundGenerationPlugin:" : "IgorStasenko 8/9/2011 14:39",
		"configureSoundPlugin:" : "EstebanLorenzano 1/2/2011 11:21",
		"configureSurfacePlugin:" : "Igor.Stasenko 12/25/2010 03:41",
		"configureThreadedIA32FFIPlugin:" : "IgorStasenko 3/17/2011 23:40",
		"configureUUIDPlugin:" : "EstebanLorenzano 1/2/2011 11:23",
		"configureUnixOSProcessPlugin:" : "Igor.Stasenko 12/31/2010 01:12",
		"coreSources" : "EstebanLorenzano 1/2/2011 11:03",
		"crossSources" : "EstebanLorenzano 1/2/2011 10:52",
		"defaultExternalPlugins" : "Igor.Stasenko 1/4/2011 03:19",
		"defaultInternalPlugins" : "Igor.Stasenko 1/4/2011 03:18",
		"dirFrom:" : "GuillermoPolito 6/17/2013 15:34",
		"doesNotUnderstand:" : "Igor.Stasenko 12/25/2010 03:48",
		"executableName" : "Igor.Stasenko 12/23/2010 19:53",
		"executableType" : "Igor.Stasenko 12/23/2010 22:44",
		"externalPlugins" : "Igor.Stasenko 1/4/2011 03:16",
		"externalPlugins:" : "Igor.Stasenko 1/4/2011 03:18",
		"extraPluginSettings:" : "Igor.Stasenko 1/15/2011 15:34",
		"extraSources" : "EstebanLorenzano 1/2/2011 11:04",
		"fixLineEndsOf:" : "Igor.Stasenko 12/23/2010 11:54",
		"frameworks" : "Igor.Stasenko 12/24/2010 00:52",
		"generate" : "IgorStasenko 3/5/2011 14:17",
		"generateForDebug" : "CamilloBruni 9/6/2013 15:06",
		"generateForRelease" : "CamilloBruni 9/6/2013 15:06",
		"generateSources" : "EstebanLorenzano 7/31/2013 14:55",
		"generateStackSources" : "IgorStasenko 2/16/2011 11:26",
		"generateVMOnlySources" : "IgorStasenko 5/10/2011 14:09",
		"internalPlugins" : "Igor.Stasenko 1/4/2011 03:16",
		"internalPlugins:" : "Igor.Stasenko 1/4/2011 03:18",
		"interpreterClass" : "IgorStasenko 3/18/2011 00:25",
		"isLittleEndian" : "Igor.Stasenko 12/30/2010 22:29",
		"linkFlags" : "EstebanLorenzano 1/20/2011 14:16",
		"outputDir:" : "MarianoMartinezPeck 4/12/2011 21:26",
		"outputDirName" : "MarianoMartinezPeck 4/12/2011 22:00",
		"platformName" : "EstebanLorenzano 8/1/2012 11:49",
		"platformSources" : "EstebanLorenzano 1/2/2011 11:03",
		"platformsDir" : "MarianoMartinezPeck 4/12/2011 21:54",
		"platformsDir:" : "Igor.Stasenko 12/24/2010 03:37",
		"platformsDirName" : "MarianoMartinezPeck 4/12/2011 21:54",
		"pluginsDir" : "EstebanLorenzano 1/2/2011 12:03",
		"pluginsDir:" : "Igor.Stasenko 1/14/2011 16:48",
		"postBuildActions:" : "",
		"preferredIncludes" : "EstebanLorenzano 1/10/2011 21:14",
		"prepareForCogGeneration" : "IgorStasenko 3/18/2011 00:28",
		"prepareForGeneration" : "IgorStasenko 3/18/2011 00:26",
		"prepareForStackVMGeneration" : "IgorStasenko 3/18/2011 00:35",
		"prepareVMMaker" : "MarianoMartinezPeck 4/19/2011 13:20",
		"setExtraTargetProperties:" : "Igor.Stasenko 1/15/2011 17:00",
		"setGlobalOptions:" : "",
		"setGlobalOptionsAfterDetermineSystem:" : "EstebanLorenzano 2/15/2013 16:47",
		"setupDirectories:" : "GuillermoPolito 6/17/2013 18:27",
		"srcDir" : "GuillermoPolito 6/27/2013 01:10",
		"srcDir:" : "MarianoMartinezPeck 4/4/2011 22:00",
		"srcDirName" : "MarianoMartinezPeck 4/12/2011 21:49",
		"standardIncludes" : "EstebanLorenzano 1/2/2011 11:04",
		"thirdpartyLibs" : "IgorStasenko 6/7/2012 16:57",
		"topDir" : "GuillermoPolito 6/17/2013 15:12",
		"topDir:" : "GuillermoPolito 6/17/2013 15:30",
		"validateSourcesPresent" : "GuillermoPolito 6/17/2013 12:11",
		"write:toFile:" : "GuillermoPolito 6/27/2013 01:23" } }
