{
	"class" : {
		 },
	"instance" : {
		"cStringOrNullFor:" : "eem 12/20/2012 10:02",
		"failed" : "eem 5/24/2011 09:09",
		"initPrimCall" : "eem 9/12/2010 06:35",
		"isDirectAlien:" : "eem 6/29/2011 13:00",
		"isIndirectAlien:" : "eem 6/29/2011 13:01",
		"isInstanceOfClassArray:" : "eem 12/20/2012 09:56",
		"isInstanceOfClassBlockClosure:" : "eem 12/20/2012 10:00",
		"isInstanceOfClassByteString:" : "eem 1/2/2013 17:37",
		"isInstanceOfClassCharacter:" : "eem 12/20/2012 09:57",
		"isInstanceOfClassFloat:" : "eem 12/20/2012 09:57",
		"isInstanceOfClassLargeNegativeInteger:" : "eem 12/20/2012 09:58",
		"isInstanceOfClassLargePositiveInteger:" : "eem 12/20/2012 09:57",
		"isNegativeIntegerValueOf:" : "dtl 9/2/2012 09:53",
		"isPointerAlien:" : "eem 6/29/2011 13:01",
		"magnitude64BitIntegerFor:neg:" : "eem 12/18/2012 18:31",
		"magnitude64BitValueOf:" : "eem 12/12/2012 11:44",
		"positive32BitValueOf:" : "eem 10/14/2010 20:52",
		"positive64BitValueOf:" : "eem 12/12/2012 11:44",
		"positiveMachineIntegerValueOf:" : "eem 12/12/2012 11:51",
		"primitiveAdd" : "di 11/30/1998 10:13",
		"primitiveAddLargeIntegers" : "dtl 9/2/2012 10:05",
		"primitiveAdoptInstance" : "eem 7/16/2010 19:55",
		"primitiveArctan" : "eem 1/6/2009 10:53",
		"primitiveArrayBecome" : "eem (objmem refactor) 6/8/2010 17:12",
		"primitiveArrayBecomeOneWay" : "eem (objmem refactor) 6/8/2010 17:12",
		"primitiveArrayBecomeOneWayCopyHash" : "eem (objmem refactor) 6/8/2010 17:12",
		"primitiveAsFloat" : "eem 11/25/2008 12:50",
		"primitiveAt" : "",
		"primitiveAtPut" : "",
		"primitiveBeCursor" : "eem 2/12/2013 16:58",
		"primitiveBeDisplay" : "eem 8/26/2010 15:57",
		"primitiveBeep" : "tpr 3/15/2004 12:13",
		"primitiveBehaviorHash" : "eem 10/18/2010 10:28",
		"primitiveBitAnd" : "eem 11/25/2008 12:50",
		"primitiveBitAndLargeIntegers" : "eem (auto pragmas 12/08) 11/25/2008 12:50",
		"primitiveBitOr" : "eem 11/25/2008 12:50",
		"primitiveBitOrLargeIntegers" : "eem (auto pragmas 12/08) 11/25/2008 12:50",
		"primitiveBitShift" : "nice 8/28/2012 22:16",
		"primitiveBitShiftLargeIntegers" : "dtl 9/2/2012 10:06",
		"primitiveBitXor" : "eem 11/25/2008 12:50",
		"primitiveBitXorLargeIntegers" : "eem (auto pragmas 12/08) 11/25/2008 12:50",
		"primitiveBytesLeft" : "eem (objmem refactor) 6/8/2010 17:12",
		"primitiveCalloutToFFI" : "eem 6/22/2009 13:56",
		"primitiveChangeClass" : "eem 12/19/2012 11:20",
		"primitiveClass" : "eem (objmem refactor) 6/8/2010 17:12",
		"primitiveClearVMProfile" : "eem 8/21/2008 11:02",
		"primitiveClipboardText" : "eem 1/2/2013 17:37",
		"primitiveClockLogAddresses" : "eem 8/27/2010 10:19",
		"primitiveClone" : "eem (objmem refactor) 6/8/2010 17:12",
		"primitiveClosureValue" : "eem 2/27/2013 13:50",
		"primitiveClosureValueNoContextSwitch" : "eem 8/21/2013 12:56",
		"primitiveClosureValueWithArgs" : "eem 2/27/2013 13:50",
		"primitiveCompareBytes" : "eem (objmem refactor) 6/8/2010 17:12",
		"primitiveConstantFill" : "eem 6/25/2011 12:27",
		"primitiveControlVMProfiling" : "eem (objmem refactor) 6/8/2010 17:12",
		"primitiveCopyObject" : "eem 4/25/2011 17:02",
		"primitiveCrashVM" : "eem 9/21/2011 14:36",
		"primitiveDisablePowerManager" : "eem (auto pragmas 12/08) 11/25/2008 12:50",
		"primitiveDiv" : "tpr 3/15/2004 20:24",
		"primitiveDivLargeIntegers" : "dtl 9/2/2012 10:07",
		"primitiveDivide" : "di 11/30/1998 10:25",
		"primitiveDivideLargeIntegers" : "dtl 9/2/2012 10:07",
		"primitiveEnterCriticalSection" : "eem 10/21/2010 21:58",
		"primitiveEqual" : "di 11/27/1998 15:43",
		"primitiveEqualLargeIntegers" : "eem (auto pragmas 12/08) 11/25/2008 12:50",
		"primitiveExitCriticalSection" : "eem 10/21/2010 16:49",
		"primitiveExitToDebugger" : "",
		"primitiveExp" : "eem 1/6/2009 10:54",
		"primitiveExponent" : "eem 1/6/2009 10:54",
		"primitiveFail" : "eem 7/18/2011 15:50",
		"primitiveFailFor:" : "eem 11/25/2009 10:43",
		"primitiveFailureCode" : "eem 11/25/2009 10:40",
		"primitiveFindHandlerContext" : "eem 2/14/2013 10:37",
		"primitiveFindNextUnwindContext" : "eem 2/14/2013 10:37",
		"primitiveFloatAdd" : "di 11/27/1998 11:45",
		"primitiveFloatAt" : "eem (objmem refactor) 6/8/2010 17:12",
		"primitiveFloatAtPut" : "eem (objmem refactor) 6/8/2010 17:12",
		"primitiveFloatDivide" : "eem 8/11/2008 10:40",
		"primitiveFloatEqual" : "eem 11/25/2008 12:50",
		"primitiveFloatGreaterOrEqual" : "nice (eem) 1/6/2009 09:58",
		"primitiveFloatGreaterThan" : "eem 11/25/2008 12:50",
		"primitiveFloatLessOrEqual" : "nice (eem) 1/6/2009 09:58",
		"primitiveFloatLessThan" : "eem 11/25/2008 12:50",
		"primitiveFloatMultiply" : "eem 8/27/2010 10:26",
		"primitiveFloatNotEqual" : "eem 11/25/2008 12:50",
		"primitiveFloatSubtract" : "di 11/27/1998 11:46",
		"primitiveFlushCache" : "eem 2/23/2009 13:14",
		"primitiveFlushExternalPrimitives" : "eem 8/11/2008 10:38",
		"primitiveForceDisplayUpdate" : "jm 5/17/1998 07:06",
		"primitiveForceTenure" : "eem (objmem refactor) 6/8/2010 17:12",
		"primitiveFormPrint" : "eem (objmem refactor) 6/8/2010 17:12",
		"primitiveFractionalPart" : "eem 1/6/2009 10:56",
		"primitiveFullGC" : "eem 2/14/2013 10:38",
		"primitiveGetAttribute" : "eem 1/2/2013 17:37",
		"primitiveGetLogDirectory" : "eem (objmem refactor) 6/8/2010 17:12",
		"primitiveGetNextEvent" : "EstebanLorenzano 1/23/2012 18:07",
		"primitiveGetWindowLabel" : "eem (objmem refactor) 6/8/2010 17:12",
		"primitiveGetWindowSize" : "ar (auto pragmas 12/08) 2/27/2008 10:54",
		"primitiveGreaterOrEqual" : "di 11/27/1998 15:43",
		"primitiveGreaterOrEqualLargeIntegers" : "eem (auto pragmas 12/08) 11/25/2008 12:50",
		"primitiveGreaterThan" : "di 11/27/1998 15:43",
		"primitiveGreaterThanLargeIntegers" : "eem (auto pragmas 12/08) 11/25/2008 12:50",
		"primitiveHeartbeatFrequency" : "eem (objmem refactor) 6/8/2010 17:12",
		"primitiveHighResClock" : "ar (auto pragmas 12/08) 6/22/2007 13:01",
		"primitiveIdentical" : "eem 5/12/2009 11:23",
		"primitiveIdentityHash" : "eem 1/11/2013 18:08",
		"primitiveImageFormatVersion" : "dtl (auto pragmas dtl 2010-09-26) 4/10/2010 12:32",
		"primitiveImageName" : "eem 1/2/2013 17:38",
		"primitiveIncrementalGC" : "eem 2/14/2013 10:38",
		"primitiveInputSemaphore" : "eem 8/26/2010 15:57",
		"primitiveInputWord" : "tpr 5/13/2005 10:17",
		"primitiveInstVarAt" : "eem 2/14/2013 10:40",
		"primitiveInstVarAtPut" : "eem 2/14/2013 10:41",
		"primitiveIntegerAt" : "eem (objmem refactor) 6/8/2010 17:12",
		"primitiveIntegerAtPut" : "eem (objmem refactor) 6/8/2010 17:12",
		"primitiveInterruptChecksPerMSec" : "eem (objmem refactor) 6/8/2010 17:12",
		"primitiveInterruptSemaphore" : "eem 8/26/2010 15:56",
		"primitiveInvokeObjectAsMethod" : "eem 10/13/2010 17:04",
		"primitiveIsRoot" : "eem 7/16/2010 15:28",
		"primitiveIsWindowObscured" : "ar 1/6/2009 16:40",
		"primitiveIsYoung" : "eem (objmem refactor) 6/8/2010 17:12",
		"primitiveKbdNext" : "eem (objmem refactor) 6/8/2010 17:12",
		"primitiveKbdPeek" : "eem (objmem refactor) 6/8/2010 17:12",
		"primitiveLessOrEqual" : "di 11/27/1998 15:43",
		"primitiveLessOrEqualLargeIntegers" : "eem (auto pragmas 12/08) 11/25/2008 12:50",
		"primitiveLessThan" : "di 11/27/1998 15:43",
		"primitiveLessThanLargeIntegers" : "eem (auto pragmas 12/08) 11/25/2008 12:50",
		"primitiveListBuiltinModule" : "eem (objmem refactor) 6/8/2010 17:12",
		"primitiveListExternalModule" : "eem (objmem refactor) 6/8/2010 17:12",
		"primitiveLoadImageSegment" : "eem (objmem refactor) 6/8/2010 17:12",
		"primitiveLocalMicrosecondClock" : "eem 8/21/2009 15:04",
		"primitiveLogN" : "eem 1/6/2009 10:57",
		"primitiveLowSpaceSemaphore" : "eem 8/26/2010 15:56",
		"primitiveMakePoint" : "eem (objmem refactor) 6/8/2010 17:12",
		"primitiveMarkHandlerMethod" : "eem 8/27/2010 10:27",
		"primitiveMarkUnwindMethod" : "eem 1/25/2009 19:50",
		"primitiveMaxIdentityHash" : "eem 7/19/2010 12:48",
		"primitiveMethod" : "ar 11/28/1999 17:42",
		"primitiveMillisecondClock" : "eem (objmem refactor) 6/8/2010 17:12",
		"primitiveMillisecondClockMask" : "eem 2/28/2013 15:10",
		"primitiveMod" : "tpr 3/15/2004 20:27",
		"primitiveModLargeIntegers" : "dtl 9/2/2012 10:07",
		"primitiveMouseButtons" : "tpr 3/15/2004 12:39",
		"primitiveMousePoint" : "tpr 3/15/2004 12:39",
		"primitiveMultiply" : "eem 11/25/2008 12:50",
		"primitiveMultiplyLargeIntegers" : "dtl 9/2/2012 10:07",
		"primitiveNew" : "eem 11/21/2012 12:20",
		"primitiveNewMethod" : "eem (objmem refactor) 6/14/2010 10:15",
		"primitiveNewWithArg" : "eem 11/21/2012 12:20",
		"primitiveNextInstance" : "eem (objmem refactor) 6/8/2010 17:12",
		"primitiveNextObject" : "eem (objmem refactor) 6/8/2010 17:12",
		"primitiveNoop" : "",
		"primitiveNotEqual" : "di 11/27/1998 15:43",
		"primitiveNotEqualLargeIntegers" : "eem (auto pragmas 12/08) 11/25/2008 12:50",
		"primitiveNotIdentical" : "eem 10/12/2011 11:08",
		"primitiveObjectAt" : "eem (objmem refactor) 6/8/2010 17:12",
		"primitiveObjectAtPut" : "eem 2/16/2012 13:18",
		"primitiveObjectPointsTo" : "eem 2/14/2013 10:43",
		"primitiveOriginalMillisecondClock" : "eem (objmem refactor) 6/8/2010 17:12",
		"primitivePathToUsing" : "eem 3/29/2013 15:42",
		"primitivePerformInSuperclass" : "eem (objmem refactor) 6/8/2010 17:12",
		"primitivePerformWithArgs" : "eem (objmem refactor) 6/8/2010 17:12",
		"primitivePointX" : "eem (objmem refactor) 6/8/2010 17:12",
		"primitivePointY" : "eem (objmem refactor) 6/8/2010 17:12",
		"primitiveProcessBindToThreadId" : "eem 11/21/2010 11:27",
		"primitiveProcessBoundThreadId" : "eem 11/21/2010 11:27",
		"primitiveProfilePrimitive" : "eem (objmem refactor) 6/8/2010 17:12",
		"primitiveProfileSample" : "eem (objmem refactor) 6/8/2010 17:12",
		"primitiveProfileSemaphore" : "eem (objmem refactor) 6/8/2010 17:12",
		"primitiveProfileStart" : "eem (auto pragmas 12/08) 11/25/2008 12:50",
		"primitiveQuit" : "eem 6/22/2010 17:04",
		"primitiveQuo" : "eem 11/25/2008 12:50",
		"primitiveQuoLargeIntegers" : "dtl 9/2/2012 10:07",
		"primitiveRelinquishProcessor" : "eem 11/25/2008 12:50",
		"primitiveRemLargeIntegers" : "nice 1/9/2013 02:16",
		"primitiveResume" : "eem 2/27/2013 13:50",
		"primitiveRootTable" : "eem 1/17/2013 14:27",
		"primitiveRootTableAt" : "eem (objmem refactor) 6/8/2010 17:12",
		"primitiveScanCharacters" : "eem 3/6/2011 09:51",
		"primitiveScreenDepth" : "tpr (auto pragmas 12/08) 5/13/2005 10:20",
		"primitiveScreenSize" : "tpr 3/15/2004 14:22",
		"primitiveSecondsClock" : "tpr 3/9/2004 08:57",
		"primitiveSetDisplayMode" : "eem 11/25/2008 12:50",
		"primitiveSetFullScreen" : "eem (objmem refactor) 6/8/2010 17:12",
		"primitiveSetGCBiasToGrow" : "eem (objmem refactor) 6/8/2010 17:12",
		"primitiveSetGCBiasToGrowGCLimit" : "eem (objmem refactor) 6/8/2010 17:12",
		"primitiveSetIdentityHash" : "eem 7/21/2010 17:11",
		"primitiveSetInterruptKey" : "eem 9/29/2010 18:38",
		"primitiveSetLogDirectory" : "eem 6/10/2010 16:13",
		"primitiveSetWindowLabel" : "eem 6/10/2010 16:13",
		"primitiveSetWindowSize" : "bgf 3/14/2009 23:16",
		"primitiveShortAt" : "eem 6/25/2011 12:46",
		"primitiveShortAtPut" : "eem 6/25/2011 12:44",
		"primitiveShowDisplayRect" : "eem (objmem refactor) 6/8/2010 17:12",
		"primitiveSignal" : "eem 5/26/2009 10:48",
		"primitiveSignalAtBytesLeft" : "eem (objmem refactor) 6/8/2010 17:12",
		"primitiveSine" : "eem 1/6/2009 10:57",
		"primitiveSize" : "eem 8/18/2011 14:23",
		"primitiveSnapshot" : "eem (auto pragmas 12/08) 8/11/2008 10:37",
		"primitiveSnapshotEmbedded" : "eem (auto pragmas 12/08) 8/11/2008 10:37",
		"primitiveSomeInstance" : "eem (objmem refactor) 6/8/2010 17:12",
		"primitiveSomeObject" : "eem (objmem refactor) 6/8/2010 17:12",
		"primitiveSpecialObjectsOop" : "eem (objmem refactor) 6/8/2010 17:12",
		"primitiveSquareRoot" : "eem 1/6/2009 10:57",
		"primitiveStartVMProfiling" : "eem 8/21/2008 10:58",
		"primitiveStopVMProfiling" : "eem (objmem refactor) 6/14/2010 10:15",
		"primitiveStoreImageSegment" : "eem (objmem refactor) 6/8/2010 17:12",
		"primitiveStringAt" : "",
		"primitiveStringAtPut" : "",
		"primitiveStringReplace" : "eem (objmem refactor) 6/8/2010 17:12",
		"primitiveSubtract" : "di 11/30/1998 10:13",
		"primitiveSubtractLargeIntegers" : "dtl 9/2/2012 10:08",
		"primitiveSuspend" : "eem (objmem refactor) 6/8/2010 17:12",
		"primitiveTestAndSetOwnershipOfCriticalSection" : "eem 10/21/2010 21:59",
		"primitiveTestDisplayDepth" : "eem 11/25/2008 12:50",
		"primitiveTimesTwoPower" : "eem 1/6/2009 10:57",
		"primitiveTruncated" : "eem 1/6/2009 10:57",
		"primitiveUTCMicrosecondClock" : "eem 8/21/2009 15:04",
		"primitiveUnloadModule" : "eem 6/10/2010 16:13",
		"primitiveUpdateTimezone" : "eem 8/24/2010 09:32",
		"primitiveUtcWithOffset" : "eem 6/5/2013 12:57",
		"primitiveVMCurrentThreadId" : "eem 11/21/2010 11:27",
		"primitiveVMPath" : "eem 1/2/2013 17:37",
		"primitiveVMProfileInfoInto" : "eem (objmem refactor) 6/14/2010 10:15",
		"primitiveVMProfileSamplesInto" : "eem 8/17/2010 19:36",
		"primitiveWait" : "eem 8/6/2009 18:16",
		"primitiveYield" : "eem (objmem refactor) 6/8/2010 17:12",
		"signalNoResume:" : "eem 5/27/2011 16:21",
		"signed32BitValueOf:" : "eem 7/21/2011 16:39",
		"signed64BitValueOf:" : "eem 12/12/2012 11:44",
		"signedMachineIntegerValueOf:" : "eem 12/12/2012 11:51",
		"sizeFieldOfAlien:" : "eem 10/27/2010 15:34",
		"sizeOfAlienData:" : "eem 11/1/2010 14:47",
		"startOfAlienData:" : "eem 6/29/2011 13:01",
		"success:" : "eem 5/24/2011 09:12",
		"successful" : "eem 5/24/2011 09:14" } }
