{
	"class" : {
		"declareCVarsIn:" : "eem 8/21/2013 15:56",
		"implicitReturnTypeFor:" : "eem 3/12/2009 11:14",
		"isNonArgumentImplicitReceiverVariableName:" : "eem 10/19/2009 12:19",
		"typeForSelf" : "eem 2/11/2009 15:48" },
	"instance" : {
		"addToOpenPICList:" : "eem 6/25/2009 17:14",
		"addToUnpairedMethodList:" : "eem 8/22/2013 08:57",
		"addToYoungReferrers:" : "eem 8/10/2012 13:25",
		"allocate:" : "eem 8/13/2012 18:10",
		"clearCogCompiledCode" : "eem 8/21/2013 19:18",
		"cogMethodsSelect:" : "eem 6/22/2009 09:38",
		"cogit" : "eem 8/13/2012 10:18",
		"compactCompiledCode:" : "eem 8/21/2013 18:33",
		"findPreviouslyCompiledVersionOf:with:" : "eem 8/22/2013 08:57",
		"freeMethod:" : "eem 8/21/2013 15:19",
		"freeOlderMethodsForCompaction" : "eem 5/31/2010 12:15",
		"freeStart" : "eem 8/13/2012 13:38",
		"freeStart:" : "eem 8/13/2012 10:28",
		"kosherYoungReferrers" : "eem 7/15/2011 06:43",
		"limitZony" : "eem 2/26/2009 18:16",
		"manageFrom:to:" : "eem 8/21/2013 15:24",
		"mem:mo:ve:" : "eem 7/15/2011 06:40",
		"methodAfter:" : "eem 2/26/2009 09:51",
		"methodFor:" : "eem 6/21/2013 14:54",
		"methods" : "eem 12/11/2010 00:14",
		"methodsDo:" : "eem 12/10/2009 10:28",
		"numMethods" : "eem 8/13/2012 13:13",
		"numMethodsOfType:" : "eem 7/19/2010 09:39",
		"occurrencesInYoungReferrers:" : "eem 7/15/2011 06:43",
		"openPICWithSelector:" : "eem 7/9/2009 21:07",
		"planCompaction" : "eem 5/31/2010 09:53",
		"printCogMethods" : "eem 2/28/2009 07:20",
		"printCogMethodsOfType:" : "eem 6/22/2009 09:13",
		"printCogMethodsWithMethod:" : "eem 8/6/2011 16:16",
		"printCogMethodsWithSelector:" : "eem 9/24/2009 10:41",
		"pruneYoungReferrers" : "eem 7/15/2011 06:42",
		"quickClearCogCompiledCode" : "eem 1/8/2011 13:26",
		"relocateAndPruneYoungReferrers" : "eem 7/15/2011 06:41",
		"removeFromOpenPICList:" : "eem 7/9/2009 21:08",
		"removeFromUnpairedMethodList:" : "eem 8/22/2013 08:57",
		"roomOnYoungReferrersList" : "eem 8/13/2012 18:11",
		"roundUpAddress:" : "eem 2/15/2009 16:53",
		"roundUpLength:" : "eem 1/5/2009 19:31",
		"setInterpreter:objectRepresentation:cogit:" : "eem 7/5/2011 16:22",
		"voidYoungReferrersPostTenureAll" : "eem 8/4/2011 15:46",
		"youngReferrers" : "eem 6/26/2009 12:47",
		"zoneEnd" : "eem 8/13/2012 13:07" } }
