{
	"category" : "VMMaker-JIT",
	"classinstvars" : [
		 ],
	"classvars" : [
		 ],
	"commentStamp" : "<historical>",
	"instvars" : [
		"youngReferrers",
		"methodCount",
		"openPICList",
		"mzFreeStart",
		"baseAddress",
		"limitAddress",
		"methodBytesFreedSinceLastCompaction",
		"coInterpreter",
		"objectRepresentation",
		"cogit",
		"objectMemory",
		"unpairedMethodList" ],
	"name" : "CogMethodZone",
	"pools" : [
		"CogMethodConstants",
		"VMBasicConstants" ],
	"super" : "CogClass",
	"type" : "normal" }
