{
	"class" : {
		"additionalSelectorTables" : "eem 2/10/2009 08:39",
		"bytecodeTable" : "",
		"declareCVarsIn:" : "eem 7/1/2011 13:39",
		"initializeAssociationIndex" : "",
		"initializeBytecodeTable" : "eem 6/16/2008 10:07",
		"initializeCaches" : "eem 5/27/2008 17:54",
		"initializeCharacterIndex" : "",
		"initializeCharacterScannerIndices" : "tpr 4/29/2003 12:10",
		"initializeClassIndices" : "",
		"initializeCompilerHooks" : "ikp 10/27/2000 14:47",
		"initializeContextIndices" : "eem 10/10/2009 22:25",
		"initializeDirectoryLookupResultCodes" : "",
		"initializeMessageIndices" : "di 3/25/1999 22:09",
		"initializeMethodIndices" : "eem 10/10/2009 22:23",
		"initializeMiscConstantsWith:" : "eem 6/21/2011 08:56",
		"initializePointIndices" : "",
		"initializePrimitiveTable" : "eem 1/7/2013 14:32",
		"initializeSchedulerIndices" : "",
		"initializeSmallIntegers" : "",
		"initializeStreamIndices" : "",
		"initializeWithOptions:" : "eem 3/31/2012 13:30",
		"isInterpreterClass" : "eem 2/10/2009 16:02",
		"isNonArgumentImplicitReceiverVariableName:" : "eem 6/19/2008 22:16",
		"macroBenchmark" : "GuillermoPolito 6/17/2013 15:29",
		"mustBeGlobal:" : "eem 2/10/2009 15:37",
		"namesOfVariablesToLocalize" : "eem 6/18/2008 10:02",
		"needsCogit" : "eem 2/9/2009 13:15",
		"patchInterp:" : "sw 5/23/2001 14:33",
		"patchInterpGCCPPC:" : "sw 5/23/2001 14:34",
		"preGenerationHook:" : "eem 8/21/2013 12:46",
		"preambleCCode" : "ar 3/10/2010 14:16",
		"primitiveTable" : "",
		"primitiveTableString" : "tpr 3/17/2005 11:32",
		"requiredMethodNames:" : "eem 8/21/2013 13:18",
		"sourceFileName" : "eem 2/9/2009 12:41",
		"table:from:" : "tpr 3/24/2004 21:29",
		"vmProxyMajorVersion" : "eem 6/16/2011 12:55",
		"vmProxyMinorVersion" : "eem 6/16/2011 12:56",
		"wantsLabels" : "eem 10/13/2008 14:28",
		"writeVMHeaderTo:bytesPerWord:" : "eem 6/16/2011 13:23" },
	"instance" : {
		"activateNewClosureMethod:" : "eem 5/6/2011 14:50",
		"activateNewMethod" : "eem 7/18/2009 17:52",
		"addLastLink:toList:" : "tpr 3/24/2004 20:52",
		"addNewMethodToCache" : "eem 12/12/2012 11:44",
		"addToExternalPrimitiveTable:" : "ikp (auto pragmas 12/08) 6/10/2004 12:26",
		"adjustInterruptCheckCounterFeedback" : "ar 2/27/2008 10:36",
		"allAccessibleObjectsOkay" : "eem 12/19/2012 15:35",
		"allocateMemory:minimum:imageFile:headerSize:" : "EstebanLorenzano 12/21/2010 23:11",
		"allocateOrRecycleContext:" : "di 10/22/1999 11:52",
		"areIntegers:and:" : "tpr 3/15/2004 19:35",
		"argumentCountOf:" : "ar 10/13/1998 13:50",
		"argumentCountOfBlock:" : "tpr 3/24/2004 20:59",
		"argumentCountOfClosure:" : "eem 6/20/2008 21:49",
		"arrayValueOf:" : "di (auto pragmas 12/08) 6/23/2004 12:24",
		"asciiOfCharacter:" : "(auto pragmas 12/08) ",
		"assertClassOf:is:" : "eem 5/27/2010 15:44",
		"balancedStack:afterPrimitive:withArgs:" : "di 6/14/2004 17:52",
		"booleanCheat:" : "tpr (auto pragmas 12/08) 3/15/2004 19:44",
		"booleanValueOf:" : "tpr 3/15/2004 19:46",
		"byteSwapByteObjects" : "di 10/18/1999 16:58",
		"byteSwapByteObjectsFrom:to:" : "dtl 4/22/2007 23:16",
		"bytecodePrimAdd" : "tpr 3/23/2004 18:23",
		"bytecodePrimAt" : "tpr 3/23/2004 18:24",
		"bytecodePrimAtEnd" : "di 6/21/97 08:58",
		"bytecodePrimAtPut" : "tpr 3/23/2004 18:25",
		"bytecodePrimBitAnd" : "jm 12/10/1998 17:29",
		"bytecodePrimBitOr" : "jm 12/10/1998 17:29",
		"bytecodePrimBitShift" : "jm 12/10/1998 17:29",
		"bytecodePrimBlockCopy" : "tpr 3/23/2004 18:26",
		"bytecodePrimClass" : "di 1/11/1999 00:09",
		"bytecodePrimDiv" : "tpr 3/24/2004 18:26",
		"bytecodePrimDivide" : "tpr 3/24/2004 18:27",
		"bytecodePrimDo" : "",
		"bytecodePrimEqual" : "tpr 3/24/2004 18:28",
		"bytecodePrimEquivalent" : "",
		"bytecodePrimGreaterOrEqual" : "eem 9/18/2010 11:41",
		"bytecodePrimGreaterThan" : "eem 1/6/2009 10:04",
		"bytecodePrimLessOrEqual" : "eem 9/18/2010 11:41",
		"bytecodePrimLessThan" : "eem 1/6/2009 10:06",
		"bytecodePrimMakePoint" : "jm 12/10/1998 17:31",
		"bytecodePrimMod" : "tpr 3/24/2004 18:31",
		"bytecodePrimMultiply" : "eem 10/4/2011 12:18",
		"bytecodePrimNew" : "",
		"bytecodePrimNewWithArg" : "",
		"bytecodePrimNext" : "di 6/21/97 08:58",
		"bytecodePrimNextPut" : "di 6/21/97 10:12",
		"bytecodePrimNotEqual" : "tpr 3/24/2004 18:32",
		"bytecodePrimPointX" : "tpr 2/11/2004 20:33",
		"bytecodePrimPointY" : "tpr 2/11/2004 20:34",
		"bytecodePrimSize" : "ar 3/5/2008 15:16",
		"bytecodePrimSubtract" : "tpr 3/24/2004 18:32",
		"bytecodePrimValue" : "eem 8/22/2008 15:20",
		"bytecodePrimValueWithArg" : "eem 8/22/2008 15:37",
		"callExternalPrimitive:" : "tpr (auto pragmas 12/08) 5/12/2005 22:48",
		"callbackEnter:" : "ar (auto pragmas 12/08) 1/16/2007 11:47",
		"callbackLeave:" : "ar 3/10/2009 15:07",
		"caller" : "tpr 3/24/2004 20:59",
		"capturePendingFinalizationSignals" : "eem 9/8/2009 11:16",
		"characterForAscii:" : "di (auto pragmas 12/08) 12/10/1998 14:53",
		"checkAssumedCompactClasses" : "eem 12/16/2008 18:12",
		"checkBooleanResult:" : "di 11/27/1998 15:38",
		"checkForInterrupts" : "eem (auto pragmas 12/08) 11/3/2008 13:41",
		"checkImageVersionFrom:startingAt:" : "tpr (auto pragmas 12/08) 12/29/2005 16:23",
		"checkIntegerResult:" : "di 11/27/1998 15:26",
		"checkInterpreterIntegrity" : "eem 5/21/2009 10:47",
		"checkedIntegerValueOf:" : "",
		"classNameOf:Is:" : "tpr (auto pragmas 12/08) 12/29/2005 16:23",
		"closureNumArgs:instructionPointer:numCopiedValues:" : "eem (auto pragmas 12/08) 9/10/2008 12:25",
		"commonAt:" : "tpr 3/15/2004 20:23",
		"commonAtPut:" : "tpr 3/15/2004 20:24",
		"commonReturn" : "eem 11/12/2012 15:02",
		"commonSend" : "eem 11/12/2012 15:10",
		"commonVariable:at:cacheIndex:" : "eem 7/18/2009 17:52",
		"commonVariable:at:put:cacheIndex:" : "eem 7/18/2009 17:51",
		"commonVariableInternal:at:cacheIndex:" : "eem 7/18/2009 17:52",
		"compare31or32Bits:equal:" : "",
		"compilerCreateActualMessage:storingArgs:" : "ikp 11/20/1999 05:05",
		"compilerFlushCache:" : "ikp 1/3/1999 18:00",
		"compilerFlushCacheHook:" : "ikp (auto pragmas 12/08) 1/3/1999 17:59",
		"compilerMapFrom:to:" : "ikp 12/12/1998 17:00",
		"compilerMapHookFrom:to:" : "ikp (auto pragmas 12/08) 12/12/1998 17:03",
		"compilerMark" : "ikp 12/19/1998 17:08",
		"compilerPostGC" : "ikp 12/12/1998 17:00",
		"compilerPostSnapshot" : "ikp 12/15/1998 12:43",
		"compilerPreGC:" : "ikp 12/12/1998 17:01",
		"compilerPreGCHook:" : "ikp (auto pragmas 12/08) 12/12/1998 17:03",
		"compilerPreSnapshot" : "ikp 12/15/1998 13:10",
		"compilerProcessChange" : "ikp 12/12/1998 17:01",
		"compilerProcessChange:to:" : "ikp 11/24/1999 07:09",
		"compilerTranslateMethod" : "ikp 10/22/1999 17:01",
		"context:hasSender:" : "tpr (auto pragmas 12/08) 3/24/2004 21:00",
		"copyBits" : "tpr (auto pragmas 12/08) 12/29/2005 16:23",
		"copyBitsFrom:to:at:" : "tpr (auto pragmas 12/08) 12/29/2005 16:24",
		"cr" : "",
		"createActualMessageTo:" : "eem 5/16/2011 10:54",
		"disableCompiler" : "ikp 12/12/1998 21:44",
		"dispatchFunctionPointer:" : "ikp (auto pragmas 12/08) 8/2/2004 18:08",
		"displayBitsOf:Left:Top:Right:Bottom:" : "ikp 6/10/2004 14:05",
		"doPrimitiveDiv:by:" : "di 11/29/1998 11:22",
		"doPrimitiveMod:by:" : "di 11/29/1998 10:02",
		"doubleExtendedDoAnythingBytecode" : "tpr 3/24/2004 18:35",
		"dummyReferToProxy" : "JMM (auto pragmas 12/08) 12/28/2002 22:07",
		"dumpImage:" : "ar (auto pragmas 12/08) 9/29/2006 18:59",
		"duplicateTopBytecode" : "jm 12/10/1998 16:42",
		"enableCompiler" : "ikp 12/12/1998 21:45",
		"executeNewMethod" : "eem 6/9/2009 10:32",
		"expandCases" : "eem (auto pragmas 12/08) 7/8/2008 19:55",
		"extendedPushBytecode" : "jm 12/10/1998 16:46",
		"extendedStoreAndPopBytecode" : "jm 12/10/1998 16:47",
		"extendedStoreBytecode" : "tpr (auto pragmas 12/08) 3/24/2004 19:06",
		"externalizeIPandSP" : "ikp 6/10/2004 11:08",
		"failed" : "",
		"fetchArray:ofObject:" : "jm (auto pragmas 12/08) 2/15/98 17:11",
		"fetchByte" : "ikp 6/10/2004 11:01",
		"fetchContextRegisters:" : "dtl (auto pragmas 12/08) 4/22/2007 23:26",
		"fetchFloat:ofObject:" : "(auto pragmas 12/08) ",
		"fetchInteger:ofObject:" : "tpr (auto pragmas 12/08) 3/15/2004 19:52",
		"fetchIntegerOrTruncFloat:ofObject:" : "tpr (auto pragmas 12/08) 12/29/2005 16:25",
		"fetchNextBytecode" : "jm 12/10/1998 16:44",
		"fetchStackPointerOf:" : "eem 6/2/2009 14:31",
		"findClassOfMethod:forReceiver:" : "",
		"findNewMethodInClass:" : "tpr (auto pragmas 12/08) 3/24/2004 21:13",
		"findSelectorOfMethod:forReceiver:" : "eem 9/29/2010 17:44",
		"floatObjectOf:" : "eem (auto pragmas 12/08) 7/4/2008 09:04",
		"floatValueOf:" : "eem 12/20/2012 09:51",
		"flushAtCache" : "eem 11/25/2008 15:15",
		"flushExternalPrimitiveOf:" : "tpr 5/12/2005 22:43",
		"flushExternalPrimitiveTable" : "tpr 3/15/2004 20:46",
		"flushExternalPrimitives" : "eem 6/23/2008 16:16",
		"flushMethodCache" : "di 12/12/1998 23:37",
		"flushMethodCacheFrom:to:" : "eem 5/27/2008 17:56",
		"forceInterruptCheck" : "ikp 4/14/2006 16:30",
		"fullDisplayUpdate" : "eem 3/4/2009 14:34",
		"functionPointerFor:inClass:" : "ikp (auto pragmas 12/08) 8/2/2004 17:54",
		"getCurrentBytecode" : "",
		"getFullScreenFlag" : "JMM 4/17/2002 12:02",
		"getInterruptCheckCounter" : "JMM 4/17/2002 12:02",
		"getInterruptKeycode" : "JMM 4/17/2002 12:02",
		"getInterruptPending" : "JMM 4/17/2002 12:02",
		"getLongFromFile:swap:" : "tpr (auto pragmas 12/08) 12/29/2005 16:25",
		"getNextWakeupTick" : "JMM 4/17/2002 12:03",
		"getSavedWindowSize" : "JMM 4/17/2002 12:03",
		"getThisSessionID" : "tpr (auto pragmas 12/08) 6/17/2005 17:52",
		"headerOf:" : "tpr 3/24/2004 21:06",
		"imageFormatCompatibilityVersion" : "eem 6/23/2008 16:26",
		"imageFormatVersion" : "eem 9/10/2008 12:31",
		"includesBehavior:ThatOf:" : "eem 3/29/2011 19:14",
		"initCompilerHooks" : "ikp 11/20/1999 04:53",
		"initialCleanup" : "ar 8/6/2003 23:32",
		"initializeInterpreter:" : "eem 6/24/2012/11:55",
		"install:inAtCache:at:string:" : "tpr (auto pragmas 12/08) 12/29/2005 16:26",
		"internalAboutToReturn:through:" : "ar (auto pragmas 12/08) 3/6/2001 15:21",
		"internalActivateNewMethod" : "eem 7/18/2009 17:51",
		"internalCannotReturn:" : "ar (auto pragmas 12/08) 3/6/2001 15:21",
		"internalExecuteNewMethod" : "ar (auto pragmas 12/08) 6/22/2007 14:25",
		"internalFetchContextRegisters:" : "dtl (auto pragmas 12/08) 4/22/2007 23:27",
		"internalFindNewMethod" : "ar (auto pragmas 12/08) 7/6/2003 23:55",
		"internalNewActiveContext:" : "dtl (auto pragmas 12/08) 4/22/2007 23:27",
		"internalPop:" : "di 6/14/2004 16:32",
		"internalPop:thenPush:" : "di 6/23/2004 13:40",
		"internalPrimitiveResponse" : "ar (auto pragmas 12/08) 2/27/2008 09:32",
		"internalPrimitiveValue" : "eem 11/12/2012 15:15",
		"internalPush:" : "di 6/23/2004 13:40",
		"internalQuickCheckForInterrupts" : "eem (auto pragmas 12/08) 11/18/2008 12:39",
		"internalStackTop" : "ikp 6/10/2004 11:16",
		"internalStackValue:" : "di 6/23/2004 13:40",
		"internalStoreContextRegisters:" : "tpr (auto pragmas 12/08) 5/12/2005 22:17",
		"internalizeIPandSP" : "ikp 6/10/2004 11:08",
		"interpret" : "eem 3/4/2009 14:33",
		"interruptCheckForced" : "tpr 3/22/2004 14:20",
		"ioFilename:fromString:ofLength:resolveAliases:" : "tpr (auto pragmas 12/08) 12/29/2005 17:43",
		"is:KindOf:" : "tpr (auto pragmas 12/08) 12/29/2005 16:26",
		"is:KindOfClass:" : "eem 5/10/2011 15:37",
		"is:MemberOf:" : "tpr (auto pragmas 12/08) 12/29/2005 16:26",
		"isEmptyList:" : "",
		"isFloatObject:" : "eem 5/9/2011 16:45",
		"isHandlerMarked:" : "ar (auto pragmas 12/08) 3/6/2001 15:04",
		"isIndexable:" : "ar 10/7/1998 18:13",
		"isUnwindMarked:" : "ar (auto pragmas 12/08) 3/6/2001 15:04",
		"jump:" : "ikp 6/10/2004 11:01",
		"jumplfFalseBy:" : "tpr 3/24/2004 18:36",
		"jumplfTrueBy:" : "tpr 3/24/2004 18:36",
		"justActivateNewMethod" : "eem 6/6/2011 13:22",
		"literal:" : "tpr 3/24/2004 21:07",
		"literal:ofMethod:" : "",
		"literalCountOf:" : "",
		"literalCountOfHeader:" : "",
		"loadBitBltFrom:" : "tpr (auto pragmas 12/08) 12/29/2005 16:26",
		"loadFloatOrIntFrom:" : "eem 9/9/2011 17:32",
		"loadInitialContext" : "dtl 4/22/2007 23:29",
		"longJumpIfFalse" : "tpr 3/24/2004 18:37",
		"longJumpIfTrue" : "tpr 3/24/2004 18:37",
		"longUnconditionalJump" : "tpr 3/24/2004 18:37",
		"lookupInMethodCacheSel:class:" : "eem (auto pragmas 12/08) 5/27/2008 17:53",
		"lookupMethodInClass:" : "eem 9/29/2010 17:44",
		"lookupMethodInDictionary:" : "tpr (auto pragmas 12/08) 3/24/2004 21:17",
		"lookupMethodNoMNUEtcInClass:" : "eem 9/29/2010 17:44",
		"makePointwithxValue:yValue:" : "tpr 5/13/2005 10:31",
		"mapInterpreterOops" : "eem 5/21/2009 10:49",
		"markAndTraceInterpreterOops" : "eem 5/6/2011 15:08",
		"methodArgumentCount" : "ar 10/7/1998 18:38",
		"methodClassOf:" : "tpr 3/24/2004 21:08",
		"methodPrimitiveIndex" : "ar 10/7/1998 18:39",
		"moduleUnloaded:" : "tpr (auto pragmas 12/08) 3/24/2004 21:22",
		"nacFetchStackPointerOf:" : "eem 6/2/2009 14:30",
		"newActiveContext:" : "dtl 4/22/2007 23:29",
		"normalSend" : "eem 11/12/2012 15:28",
		"nullCompilerHook" : "ikp 12/12/1998 17:08",
		"okayActiveProcessStack" : "",
		"okayFields:" : "eem 8/1/2013 11:32",
		"okayInterpreterObjects" : "",
		"oopHasOkayClass:" : "eem (auto pragmas 12/08) 6/6/2008 06:56",
		"pop2AndPushIntegerIfOK:" : "di 11/30/1998 12:31",
		"pop:" : "eem 3/4/2009 14:35",
		"pop:thenPush:" : "di 6/14/2004 16:33",
		"pop:thenPushBool:" : "eem 8/22/2008 15:28",
		"pop:thenPushInteger:" : "tpr 5/13/2005 10:16",
		"popFloat" : "eem 9/9/2011 09:05",
		"popInteger" : "tpr 3/15/2004 20:00",
		"popPos32BitInteger" : "",
		"popStack" : "di 6/14/2004 16:34",
		"popStackBytecode" : "jm 12/10/1998 16:47",
		"positive32BitIntegerFor:" : "tpr 5/13/2005 10:31",
		"positive32BitValueOf:" : "",
		"positive64BitIntegerFor:" : "ar (auto pragmas 12/08) 3/21/2008 20:40",
		"positive64BitValueOf:" : "eem 12/12/2012 11:44",
		"postGCAction" : "dtl 4/22/2007 23:31",
		"preGCAction:" : "eem 8/4/2011 17:18",
		"primitiveAdd" : "di 11/30/1998 10:13",
		"primitiveAddLargeIntegers" : "ar (auto pragmas 12/08) 3/19/2008 21:37",
		"primitiveAdoptInstance" : "eem 7/16/2010 19:57",
		"primitiveArctan" : "tpr (auto pragmas 12/08) 12/29/2005 16:26",
		"primitiveArrayBecome" : "brp 9/19/2003 16:08",
		"primitiveArrayBecomeOneWay" : "brp 9/26/2003 08:00",
		"primitiveArrayBecomeOneWayCopyHash" : "brp 9/26/2003 08:08",
		"primitiveAsFloat" : "tpr 3/23/2004 17:21",
		"primitiveAsOop" : "tpr 5/13/2005 10:17",
		"primitiveAt" : "",
		"primitiveAtPut" : "",
		"primitiveBeCursor" : "eem 2/12/2013 16:59",
		"primitiveBeDisplay" : "tpr 3/15/2004 12:13",
		"primitiveBeep" : "tpr 3/15/2004 12:13",
		"primitiveBitAnd" : "di 11/29/1998 12:02",
		"primitiveBitAndLargeIntegers" : "ar (auto pragmas 12/08) 3/19/2008 21:37",
		"primitiveBitOr" : "di 11/29/1998 12:02",
		"primitiveBitOrLargeIntegers" : "ar (auto pragmas 12/08) 3/19/2008 21:37",
		"primitiveBitShift" : "di 11/29/1998 12:04",
		"primitiveBitShiftLargeIntegers" : "ar (auto pragmas 12/08) 3/21/2008 20:41",
		"primitiveBitXor" : "di 11/30/1998 13:18",
		"primitiveBitXorLargeIntegers" : "ar (auto pragmas 12/08) 3/19/2008 21:38",
		"primitiveBlockCopy" : "tpr 5/13/2005 10:52",
		"primitiveBytesLeft" : "tpr 5/13/2005 10:18",
		"primitiveCalloutToFFI" : "ikp (auto pragmas 12/08) 6/10/2004 14:10",
		"primitiveChangeClass" : "eem 12/19/2012 11:20",
		"primitiveClass" : "ls 8/17/2000 15:52",
		"primitiveClearVMProfile" : "eem 8/21/2008 11:02",
		"primitiveClipboardText" : "eem 1/2/2013 17:36",
		"primitiveClone" : "tpr 4/25/2005 19:41",
		"primitiveClosureCopyWithCopiedValues" : "eem 9/10/2008 12:27",
		"primitiveClosureValue" : "eem 9/23/2010 21:00",
		"primitiveClosureValueNoContextSwitch" : "eem 9/23/2010 21:00",
		"primitiveClosureValueWithArgs" : "eem 9/23/2010 21:00",
		"primitiveCompareBytes" : "ar (auto pragmas 12/08) 6/3/2007 17:23",
		"primitiveConstantFill" : "dtl (auto pragmas 12/08) 4/22/2007 23:33",
		"primitiveControlVMProfiling" : "eem 11/2/2008 10:38",
		"primitiveCopyObject" : "tpr 3/23/2004 17:40",
		"primitiveDeferDisplayUpdates" : "tpr 3/15/2004 12:16",
		"primitiveDisablePowerManager" : "tpr (auto pragmas 12/08) 5/9/2005 18:58",
		"primitiveDiv" : "tpr 3/15/2004 20:24",
		"primitiveDivLargeIntegers" : "ar (auto pragmas 12/08) 3/20/2008 22:52",
		"primitiveDivide" : "di 11/30/1998 10:25",
		"primitiveDivideLargeIntegers" : "ar (auto pragmas 12/08) 3/19/2008 21:38",
		"primitiveDoPrimitiveWithArgs" : "tpr 3/23/2004 17:55",
		"primitiveEqual" : "di 11/27/1998 15:43",
		"primitiveEqualLargeIntegers" : "ar (auto pragmas 12/08) 3/19/2008 21:38",
		"primitiveEquivalent" : "eem 5/12/2009 11:23",
		"primitiveExecuteMethod" : "eem 10/26/2008 18:49",
		"primitiveExecuteMethodArgsArray" : "eem 6/7/2011 15:18",
		"primitiveExitToDebugger" : "",
		"primitiveExp" : "tpr (auto pragmas 12/08) 12/29/2005 16:27",
		"primitiveExponent" : "tpr (auto pragmas 12/08) 12/29/2005 16:28",
		"primitiveExternalCall" : "eem (auto pragmas 12/08) 6/23/2008 16:12",
		"primitiveFail" : "",
		"primitiveFindHandlerContext" : "ar 3/6/2001 14:57",
		"primitiveFindNextUnwindContext" : "ar 7/8/2003 11:33",
		"primitiveFloatAdd" : "eem 8/27/2010 10:26",
		"primitiveFloatAdd:toArg:" : "tpr (auto pragmas 12/08) 12/29/2005 16:29",
		"primitiveFloatDivide" : "di 11/27/1998 11:45",
		"primitiveFloatDivide:byArg:" : "tpr (auto pragmas 12/08) 12/29/2005 16:29",
		"primitiveFloatEqual" : "acg 8/30/2002 17:30",
		"primitiveFloatEqual:toArg:" : "tpr (auto pragmas 12/08) 12/29/2005 16:29",
		"primitiveFloatGreater:thanArg:" : "tpr (auto pragmas 12/08) 12/29/2005 16:29",
		"primitiveFloatGreaterOrEqual" : "nice 1/4/2009 21:24",
		"primitiveFloatGreaterOrEqual:toArg:" : "eem 1/6/2009 10:49",
		"primitiveFloatGreaterThan" : "acg 8/30/2002 17:31",
		"primitiveFloatLess:thanArg:" : "tpr (auto pragmas 12/08) 12/29/2005 16:29",
		"primitiveFloatLessOrEqual" : "nice 1/4/2009 21:24",
		"primitiveFloatLessOrEqual:toArg:" : "nice (eem) 1/4/2009 21:23",
		"primitiveFloatLessThan" : "acg 8/30/2002 17:31",
		"primitiveFloatMultiply" : "di 11/27/1998 11:46",
		"primitiveFloatMultiply:byArg:" : "tpr (auto pragmas 12/08) 12/29/2005 16:29",
		"primitiveFloatNotEqual" : "acg 8/30/2002 17:31",
		"primitiveFloatSubtract" : "eem 8/27/2010 10:26",
		"primitiveFloatSubtract:fromArg:" : "tpr (auto pragmas 12/08) 12/29/2005 16:30",
		"primitiveFlushCache" : "md 2/12/2001 16:41",
		"primitiveFlushCacheByMethod" : "ikp 1/4/1999 11:31",
		"primitiveFlushCacheSelective" : "jm 12/14/1998 14:32",
		"primitiveFlushExternalPrimitives" : "ar 3/26/2000 16:03",
		"primitiveForceDisplayUpdate" : "jm 5/17/1998 07:06",
		"primitiveForceTenure" : "JMM (auto pragmas 12/08) 1/27/2005 13:21",
		"primitiveFormPrint" : "tpr (auto pragmas 12/08) 12/29/2005 16:30",
		"primitiveFractionalPart" : "tpr (auto pragmas 12/08) 12/29/2005 16:30",
		"primitiveFullGC" : "tpr 3/15/2004 14:27",
		"primitiveGetAttribute" : "eem 1/2/2013 17:36",
		"primitiveGetLogDirectory" : "ar (auto pragmas 12/08) 10/12/2007 16:20",
		"primitiveGetNextEvent" : "tpr (auto pragmas 12/08) 3/15/2004 12:20",
		"primitiveGetWindowLabel" : "ar (auto pragmas 12/08) 3/8/2007 14:09",
		"primitiveGetWindowSize" : "ar (auto pragmas 12/08) 2/27/2008 10:54",
		"primitiveGreaterOrEqual" : "di 11/27/1998 15:43",
		"primitiveGreaterOrEqualLargeIntegers" : "ar (auto pragmas 12/08) 3/19/2008 21:38",
		"primitiveGreaterThan" : "di 11/27/1998 15:43",
		"primitiveGreaterThanLargeIntegers" : "ar (auto pragmas 12/08) 3/19/2008 21:38",
		"primitiveHighResClock" : "ar (auto pragmas 12/08) 6/22/2007 13:01",
		"primitiveImageFormatVersion" : "dtl (auto pragmas dtl 2010-09-26) 4/10/2010 12:32",
		"primitiveImageName" : "eem 1/2/2013 17:38",
		"primitiveIncrementalGC" : "ar 2/25/2001 17:19",
		"primitiveIndexOf:" : "ls 6/22/2000 14:35",
		"primitiveInputSemaphore" : "tpr 3/15/2004 20:12",
		"primitiveInputWord" : "tpr 5/13/2005 10:17",
		"primitiveInstVarAt" : "tpr 3/23/2004 17:42",
		"primitiveInstVarAtPut" : "tpr 3/23/2004 17:43",
		"primitiveInstVarsPutFromStack" : "dtl 4/22/2007 23:35",
		"primitiveIntegerAt" : "dtl (auto pragmas 12/08) 12/3/2008 05:12",
		"primitiveIntegerAtPut" : "eem 12/4/2008 10:22",
		"primitiveInterruptChecksPerMSec" : "ar (auto pragmas 12/08) 6/11/2007 23:10",
		"primitiveInterruptSemaphore" : "tpr 3/15/2004 12:37",
		"primitiveInvokeObjectAsMethod" : "eem 9/25/2010 09:40",
		"primitiveIsRoot" : "eem 1/12/2013 17:28",
		"primitiveIsWindowObscured" : "ar 1/6/2009 16:39",
		"primitiveIsYoung" : "dtl (auto pragmas 12/08) 4/22/2007 22:51",
		"primitiveKbdNext" : "tpr 3/15/2004 12:38",
		"primitiveKbdPeek" : "tpr 3/15/2004 12:39",
		"primitiveLessOrEqual" : "di 11/27/1998 15:43",
		"primitiveLessOrEqualLargeIntegers" : "ar (auto pragmas 12/08) 3/19/2008 21:38",
		"primitiveLessThan" : "di 11/27/1998 15:43",
		"primitiveLessThanLargeIntegers" : "ar (auto pragmas 12/08) 3/19/2008 21:38",
		"primitiveListBuiltinModule" : "tpr (auto pragmas 12/08) 3/25/2004 20:02",
		"primitiveListExternalModule" : "tpr (auto pragmas 12/08) 3/25/2004 20:00",
		"primitiveLoadImageSegment" : "eem 5/16/2009 08:53",
		"primitiveLoadInstVar" : "jm 9/18/97 21:06",
		"primitiveLocalMicrosecondClock" : "dtl 8/13/2012 22:20",
		"primitiveLogN" : "tpr (auto pragmas 12/08) 12/29/2005 16:31",
		"primitiveLowSpaceSemaphore" : "tpr 3/15/2004 14:27",
		"primitiveMakePoint" : "tpr 3/23/2004 17:01",
		"primitiveMarkHandlerMethod" : "tpr (auto pragmas 12/08) 2/20/2004 19:46",
		"primitiveMarkUnwindMethod" : "eem 8/27/2010 10:28",
		"primitiveMethod" : "ar 11/28/1999 17:42",
		"primitiveMillisecondClock" : "tpr 3/9/2004 08:54",
		"primitiveMod" : "tpr 3/15/2004 20:27",
		"primitiveModLargeIntegers" : "ar (auto pragmas 12/08) 3/19/2008 21:38",
		"primitiveMouseButtons" : "tpr 3/15/2004 12:39",
		"primitiveMousePoint" : "tpr 3/15/2004 12:39",
		"primitiveMultiply" : "di 11/30/1998 10:27",
		"primitiveMultiplyLargeIntegers" : "ar (auto pragmas 12/08) 3/19/2008 21:38",
		"primitiveNew" : "tpr 3/23/2004 17:43",
		"primitiveNewMethod" : "eem 7/24/2008 17:15",
		"primitiveNewWithArg" : "tpr 3/23/2004 17:44",
		"primitiveNextInstance" : "eem 4/14/2009 10:43",
		"primitiveNextObject" : "tpr 5/13/2005 10:20",
		"primitiveNoop" : "",
		"primitiveNotEqual" : "di 11/27/1998 15:43",
		"primitiveNotEqualLargeIntegers" : "ar (auto pragmas 12/08) 3/19/2008 21:39",
		"primitiveNotIdentical" : "eem 10/12/2011 11:08",
		"primitiveObjectAt" : "tpr 3/23/2004 17:45",
		"primitiveObjectAtPut" : "tpr 3/23/2004 17:45",
		"primitiveObjectPointsTo" : "di 6/14/2004 17:26",
		"primitivePerform" : "eem 9/25/2010 09:40",
		"primitivePerformAt:" : "eem 9/25/2010 09:40",
		"primitivePerformInSuperclass" : "di 4/12/1999 10:57",
		"primitivePerformWithArgs" : "di 4/12/1999 10:55",
		"primitivePointX" : "jm (auto pragmas 12/08) 12/10/1998 18:49",
		"primitivePointY" : "jm (auto pragmas 12/08) 12/10/1998 18:50",
		"primitiveProfilePrimitive" : "ar (auto pragmas 12/08) 2/27/2008 09:30",
		"primitiveProfileSample" : "ar (auto pragmas 12/08) 2/27/2008 09:29",
		"primitiveProfileSemaphore" : "bgf 3/2/2009 01:58",
		"primitiveProfileStart" : "ar (auto pragmas 12/08) 2/26/2008 15:50",
		"primitivePushFalse" : "jm 9/18/97 21:06",
		"primitivePushMinusOne" : "jm 9/18/97 21:06",
		"primitivePushNil" : "jm 9/18/97 21:06",
		"primitivePushOne" : "jm 9/18/97 21:06",
		"primitivePushSelf" : "jm 9/18/97 21:06",
		"primitivePushTrue" : "jm 9/18/97 21:06",
		"primitivePushTwo" : "jm 9/18/97 21:06",
		"primitivePushZero" : "jm 9/18/97 21:06",
		"primitiveQuit" : "",
		"primitiveQuo" : "di 11/30/1998 10:19",
		"primitiveQuoLargeIntegers" : "ar (auto pragmas 12/08) 3/19/2008 21:39",
		"primitiveRelinquishProcessor" : "ar 2/26/2008 19:24",
		"primitiveResponse" : "eem 6/30/2008 10:24",
		"primitiveResume" : "tpr 3/15/2004 14:32",
		"primitiveRootTable" : "eem 1/17/2013 14:21",
		"primitiveRootTableAt" : "ar (auto pragmas 12/08) 1/18/2005 15:59",
		"primitiveScanCharacters" : "tpr 3/15/2004 12:56",
		"primitiveScreenDepth" : "tpr (auto pragmas 12/08) 5/13/2005 10:20",
		"primitiveScreenSize" : "tpr 3/15/2004 14:22",
		"primitiveSecondsClock" : "tpr 3/9/2004 08:57",
		"primitiveSetDisplayMode" : "tpr 3/15/2004 20:29",
		"primitiveSetFullScreen" : "tpr 3/15/2004 14:23",
		"primitiveSetGCBiasToGrow" : "JMM (auto pragmas 12/08) 1/27/2005 12:30",
		"primitiveSetGCBiasToGrowGCLimit" : "JMM (auto pragmas 12/08) 1/27/2005 15:55",
		"primitiveSetGCSemaphore" : "ar (auto pragmas 12/08) 1/18/2005 15:42",
		"primitiveSetInterruptKey" : "",
		"primitiveSetLogDirectory" : "ar (auto pragmas 12/08) 10/12/2007 16:21",
		"primitiveSetWindowLabel" : "ar (auto pragmas 12/08) 3/8/2007 14:10",
		"primitiveSetWindowSize" : "ar (auto pragmas 12/08) 2/27/2008 10:54",
		"primitiveShortAt" : "tpr 5/13/2005 10:20",
		"primitiveShortAtPut" : "ikp 6/11/2004 16:44",
		"primitiveShowDisplayRect" : "tpr 3/15/2004 14:24",
		"primitiveSignal" : "tpr 3/15/2004 14:33",
		"primitiveSignalAtBytesLeft" : "tpr 3/15/2004 14:28",
		"primitiveSignalAtMilliseconds" : "tpr 5/9/2005 18:58",
		"primitiveSine" : "tpr (auto pragmas 12/08) 12/29/2005 16:31",
		"primitiveSize" : "di 3/29/1999 11:28",
		"primitiveSnapshot" : "tpr (auto pragmas 12/08) 5/9/2005 19:03",
		"primitiveSnapshotEmbedded" : "tpr (auto pragmas 12/08) 3/9/2004 09:20",
		"primitiveSomeInstance" : "tpr 3/15/2004 20:29",
		"primitiveSomeObject" : "ls 7/4/2003 15:14",
		"primitiveSpecialObjectsOop" : "tpr 3/9/2004 09:20",
		"primitiveSquareRoot" : "tpr (auto pragmas 12/08) 12/29/2005 16:31",
		"primitiveStartVMProfiling" : "eem 8/21/2008 10:58",
		"primitiveStopVMProfiling" : "eem (auto pragmas 12/08) 8/21/2008 11:03",
		"primitiveStoreImageSegment" : "eem 6/3/2010 15:07",
		"primitiveStoreStackp" : "eem 10/16/2009 15:38",
		"primitiveStringAt" : "",
		"primitiveStringAtPut" : "",
		"primitiveStringReplace" : "ikp 3/29/2005 22:34",
		"primitiveSubtract" : "di 11/30/1998 10:13",
		"primitiveSubtractLargeIntegers" : "eem 1/13/2009 15:12",
		"primitiveSuspend" : "ar 12/4/2007 16:31",
		"primitiveTerminateTo" : "ajh 1/28/2003 12:58",
		"primitiveTestDisplayDepth" : "ar 5/1/1999 09:41",
		"primitiveTimesTwoPower" : "tpr (auto pragmas 12/08) 12/29/2005 16:32",
		"primitiveTruncated" : "tpr (auto pragmas 12/08) 12/29/2005 16:32",
		"primitiveUTCMicrosecondClock" : "dtl 8/13/2012 22:19",
		"primitiveUnloadModule" : "tpr 3/23/2005 15:28",
		"primitiveVMParameter" : "eem 9/8/2009 13:07",
		"primitiveVMPath" : "eem 1/2/2013 17:37",
		"primitiveVMProfileInfoInto" : "eem (auto pragmas 12/08) 8/21/2008 10:56",
		"primitiveVMProfileSamplesInto" : "eem (auto pragmas 12/08) 11/1/2008 18:03",
		"primitiveValue" : "tpr 3/23/2004 18:08",
		"primitiveValueUninterruptably" : "tpr (auto pragmas 12/08) 2/20/2004 19:46",
		"primitiveValueWithArgs" : "tpr 10/29/2004 19:11",
		"primitiveWait" : "",
		"primitiveYield" : "tpr 6/1/2004 13:37",
		"print:" : "tpr (auto pragmas 12/08) 12/29/2005 16:32",
		"printAllStacks" : "ar 6/15/2007 15:59",
		"printCallStack" : "eem 3/4/2009 14:37",
		"printCallStackOf:" : "ajh (auto pragmas 12/08) 3/16/2003 13:13",
		"printChar:" : "",
		"printHex:" : "eem 5/21/2009 10:01",
		"printNameOfClass:count:" : "eem 6/24/2012/11:55",
		"printNum:" : "",
		"printOop:" : "eem 8/14/2012 14:20",
		"printStringOf:" : "eem 10/24/2008 14:25",
		"printUnbalancedStack:" : "ar (auto pragmas 12/08) 2/20/2001 01:00",
		"push:" : "di 6/14/2004 16:34",
		"pushActiveContextBytecode" : "jm 12/10/1998 16:48",
		"pushBool:" : "",
		"pushClosureCopyCopiedValuesBytecode" : "eem 9/10/2008 12:26",
		"pushConstantFalseBytecode" : "jm 12/10/1998 16:48",
		"pushConstantMinusOneBytecode" : "jm 12/10/1998 16:48",
		"pushConstantNilBytecode" : "jm 12/10/1998 16:48",
		"pushConstantOneBytecode" : "jm 12/10/1998 16:48",
		"pushConstantTrueBytecode" : "jm 12/10/1998 16:48",
		"pushConstantTwoBytecode" : "jm 12/10/1998 16:48",
		"pushConstantZeroBytecode" : "jm 12/10/1998 16:48",
		"pushFloat:" : "tpr (auto pragmas 12/08) 12/29/2005 16:32",
		"pushInteger:" : "eem 3/4/2009 14:39",
		"pushLiteralConstant:" : "",
		"pushLiteralConstantBytecode" : "eem 11/13/2012 10:40",
		"pushLiteralVariable:" : "",
		"pushLiteralVariableBytecode" : "eem 11/13/2012 10:43",
		"pushNewArrayBytecode" : "eem 7/22/2008 16:46",
		"pushReceiverBytecode" : "jm 12/10/1998 16:48",
		"pushReceiverVariable:" : "",
		"pushReceiverVariableBytecode" : "eem 11/13/2012 10:44",
		"pushRemoteTemp:inVectorAt:" : "eem 5/27/2008 15:12",
		"pushRemoteTempLongBytecode" : "eem 5/27/2008 13:28",
		"pushTemporaryVariable:" : "",
		"pushTemporaryVariableBytecode" : "eem 11/13/2012 10:45",
		"putLong:toFile:" : "tpr (auto pragmas 12/08) 12/29/2005 16:32",
		"putToSleep:" : "",
		"quickCheckForInterrupts" : "eem 11/3/2008 13:48",
		"quickFetchInteger:ofObject:" : "tpr 3/15/2004 20:35",
		"readImageFromFile:HeapSize:StartingAt:" : "EstebanLorenzano 11/19/2012 15:21",
		"readableFormat:" : "eem 6/23/2008 16:27",
		"recycleContextIfPossible:" : "dtl (auto pragmas 12/08) 4/22/2007 20:13",
		"reestablishContextPriorToCallback:" : "eem 6/1/2010 18:27",
		"removeFirstLinkOfList:" : "tpr 3/24/2004 20:54",
		"removeProcess:fromList:" : "ar 12/4/2007 16:21",
		"resume:" : "tpr (auto pragmas 12/08) 3/24/2004 20:55",
		"returnFalse" : "ar 7/6/2003 21:55",
		"returnNil" : "ar 7/6/2003 21:55",
		"returnReceiver" : "ar 7/6/2003 21:55",
		"returnTopFromBlock" : "ar 7/6/2003 21:55",
		"returnTopFromMethod" : "ar 7/6/2003 21:55",
		"returnTrue" : "ar 7/6/2003 21:55",
		"reverseBytesInImage" : "di 10/2/97 00:31",
		"reverseDisplayFrom:to:" : "di 7/7/2004 16:34",
		"rewriteMethodCacheSel:class:primIndex:" : "ikp (auto pragmas 12/08) 3/26/2005 14:24",
		"rewriteMethodCacheSel:class:primIndex:primFunction:" : "ikp (auto pragmas 12/08) 3/26/2005 14:24",
		"saveProcessSignalingLowSpace" : "dtl 4/16/2005 01:36",
		"schedulerPointer" : "tpr 3/24/2004 20:55",
		"secondExtendedSendBytecode" : "",
		"sendInvokeCallback:Stack:Registers:Jmpbuf:" : "eem 6/6/2011 13:20",
		"sendLiteralSelectorBytecode" : "eem (auto pragmas) 7/8/2008 19:50",
		"sender" : "eem 5/23/2008 14:53",
		"setCompilerInitialized:" : "ikp 12/16/1998 01:35",
		"setFullScreenFlag:" : "JMM 4/16/2002 13:44",
		"setInterruptCheckCounter:" : "JMM 4/16/2002 13:45",
		"setInterruptKeycode:" : "JMM 4/16/2002 13:46",
		"setInterruptPending:" : "JMM 4/16/2002 13:46",
		"setNextWakeupTick:" : "JMM 4/16/2002 13:48",
		"setSavedWindowSize:" : "JMM 4/16/2002 13:47",
		"shortConditionalJump" : "",
		"shortUnconditionalJump" : "eem (auto pragmas) 7/8/2008 19:49",
		"showDisplayBits:Left:Top:Right:Bottom:" : "ar 2/20/2000 22:06",
		"signExtend16:" : "",
		"signalExternalSemaphores" : "tpr 3/24/2004 20:57",
		"signalFinalization:" : "tpr 3/22/2004 14:23",
		"signalSemaphoreWithIndex:" : "tpr 3/22/2004 14:25",
		"signed32BitIntegerFor:" : "tpr (auto pragmas 12/08) 3/23/2004 18:13",
		"signed32BitValueOf:" : "eem 7/21/2011 16:42",
		"signed64BitIntegerFor:" : "eem 12/18/2012 18:46",
		"signed64BitValueOf:" : "eem 12/12/2012 11:44",
		"singleExtendedSendBytecode" : "",
		"singleExtendedSuperBytecode" : "",
		"sizeOfSTArrayFromCPrimitive:" : "tpr (auto pragmas 12/08) 12/29/2005 16:33",
		"snapshot:" : "ikp (auto pragmas 12/08) 8/3/2004 18:24",
		"snapshotCleanUp" : "dtl 4/22/2007 23:42",
		"specialSelector:" : "",
		"stObject:at:" : "dtl (auto pragmas 12/08) 4/22/2007 23:56",
		"stObject:at:put:" : "eem 12/7/2012 11:25",
		"stSizeOf:" : "tpr (auto pragmas 12/08) 3/7/2003 19:52",
		"stackFloatValue:" : "eem 9/9/2011 09:08",
		"stackIntegerValue:" : "di 6/14/2004 16:34",
		"stackObjectValue:" : "di 6/14/2004 16:34",
		"stackPointerIndex" : "di 6/14/2004 14:14",
		"stackTop" : "",
		"stackValue:" : "di 6/14/2004 16:35",
		"storeAndPopReceiverVariableBytecode" : "eem (auto pragmas) 7/8/2008 19:50",
		"storeAndPopRemoteTempLongBytecode" : "eem 5/24/2008 11:01",
		"storeAndPopTemporaryVariableBytecode" : "eem 11/13/2012 10:29",
		"storeContextRegisters:" : "tpr (auto pragmas 12/08) 5/12/2005 22:16",
		"storeInteger:ofObject:withValue:" : "tpr 5/12/2005 15:53",
		"storeRemoteTemp:inVectorAt:" : "eem 5/24/2008 11:00",
		"storeRemoteTempLongBytecode" : "eem 5/27/2008 13:29",
		"storeStackPointerValue:inContext:" : "tpr 5/13/2005 10:44",
		"subscript:with:format:" : "di (auto pragmas 12/08) 7/4/2004 08:43",
		"subscript:with:storing:format:" : "di (auto pragmas 12/08) 7/4/2004 09:00",
		"success:" : "",
		"superclassOf:" : "",
		"superclassSend" : "eem 11/12/2012 15:22",
		"symbolicMethod:" : "eem 11/13/2012 16:26",
		"synchronousSignal:" : "tpr (auto pragmas 12/08) 3/24/2004 20:57",
		"tempCountOf:" : "di 7/19/2004 14:59",
		"temporary:" : "jm 12/7/1998 07:42",
		"transfer:fromIndex:ofObject:toIndex:ofObject:" : "eem 6/1/2010 18:26",
		"transferTo:" : "eem 8/17/2009 16:38",
		"unPop:" : "di 6/14/2004 16:35",
		"unknownBytecode" : "",
		"wakeHighestPriority" : "tpr 3/24/2004 20:59",
		"wordSwapped:" : "ikp 9/22/2004 12:05",
		"writeImageFile:" : "tpr (auto pragmas 12/08) 12/29/2005 16:34",
		"writeImageFileIO:" : "tpr (auto pragmas 12/08) 12/29/2005 16:33" } }
